"number","short_description","story_points","state","u_close_code","assignment_group","additional_assignee_list","assigned_to"
"SFSTRY0019216","Отправка в РСА 2.0 корректных кодов типов документов на ТС и ВУ в зависимости от страны документа","8","Draft","","Форсаж","",""
"SFSTRY0020438","Инциденты","6","Draft","","Форсаж","",""
"SFSTRY0020988","Логирование: проставление кодов 14, 15, 18","5","Work in progress","","Форсаж","Копылов Михаил Валерьевич","ТОЛЧЕНОВА ОЛЬГА СЕРГЕЕВНА"
"SFSTRY0020934","ОСАГО: разметка целей по продуктам на сайте","5","Ready for testing","","Форсаж","","Ковинька Андрей Александрович"
"SFSTRY0019923","Отправка в РСА 2.0 данных по иностранным документам и водителям (тестирование)","5","Draft","","Форсаж","",""
"SFSTRY0021000","Удаление старой логики для РСА 1.12 на сайте, рефакторинг","3","Work in progress","","Форсаж","","Ковинька Андрей Александрович"
