"number","short_description","story_points","state","u_close_code","assignment_group","additional_assignee_list","assigned_to"
"SFSTRY0017146","(БO)[СББОЛ] Спайк. Проработка решения Сбербанк Бизнес Онлайн","3","Work in progress","","Байкал","Орлова Наталья Валерьевна","Шувалов Борис Викторович"
"SFSTRY0007200","(ПОЛА)Сервис оплаты на сайте : Доработка страницы предоплаты и постоплаты для оплаты регресса и франшизы","3","Testing","","Байкал","Киклевич Андрей Олегович, Ларионов Константин Александрович, Пушкарь Илья Андреевич","Орлова Наталья Валерьевна"
"SFSTRY0017058","(ПКА)Доработка методка КАСКО. Сохранять номер запроса РСА  при заведение убытка каско в МП","2","Work in progress","","Байкал","Пушкарь Илья Андреевич, Киклевич Андрей Олегович","Григорьев Константин Владимирович"
"SFSTRY0016918","(ПОЛН)Скидка WSM : Проработка сценария использования + подготовка требований к Front-end для подрядчика","2","Draft","","Байкал","Никитина Алла Гургеновна, Ларионов Константин Александрович, Орлова Наталья Валерьевна","Пушкарь Илья Андреевич"
"SFSTRY0016216","(ПОН)[PI11] Оплата регрессов / В описание платежа передавать контакты с сайта (отчет в excel)","2","Complete","Completed","Байкал","Шувалов Борис Викторович, Никитина Алла Гургеновна, Киклевич Андрей Олегович, Фёклин Александр Александрович, Григорьев Константин Владимирович, Орлова Наталья Валерьевна, Ларионов Константин Александрович, Пушкарь Илья Андреевич, Кайнов Илья Михайлович, Амплеев Евгений Михайлович","Орлова Наталья Валерьевна"
"SFSTRY0011328","(ЛБ) (+Качанов) Доработка API ЛК для сайта ""Высота"" : Метод регистрации заявки ","1","Work in progress","","Байкал","Ларионов Константин Александрович","Шувалов Борис Викторович"
"SFSTRY0017045","(ПКН)Шаблон памятки ИФЛ при заявление убытка ифл, изменение формата шаблона с doc на pdf (+ правки по тэгам шаблона)","1","Complete","Ready for Release","Байкал","Шувалов Борис Викторович, Никитина Алла Гургеновна, Киклевич Андрей Олегович, Фёклин Александр Александрович, Григорьев Константин Владимирович, Орлова Наталья Валерьевна, Ларионов Константин Александрович, Пушкарь Илья Андреевич, Кайнов Илья Михайлович, Амплеев Евгений Михайлович","Григорьев Константин Владимирович"
"SFSTRY0014363","(АБ)S4->S5[АБ][PI 10] SSO: Тестирование и выкладка на бой","1","Complete","Completed","Байкал","Шувалов Борис Викторович, Никитина Алла Гургеновна, Киклевич Андрей Олегович, Фёклин Александр Александрович, Григорьев Константин Владимирович, Орлова Наталья Валерьевна, Ларионов Константин Александрович, Пушкарь Илья Андреевич, Кайнов Илья Михайлович, Амплеев Евгений Михайлович","Киклевич Андрей Олегович"
"SFSTRY0016281","(ПЛБН)[PI11] ДМС / Переименовать памятку","1","Complete","Ready for Release","Байкал","Шувалов Борис Викторович, Никитина Алла Гургеновна, Киклевич Андрей Олегович, Фёклин Александр Александрович, Григорьев Константин Владимирович, Орлова Наталья Валерьевна, Ларионов Константин Александрович, Пушкарь Илья Андреевич, Кайнов Илья Михайлович, Амплеев Евгений Михайлович","Шувалов Борис Викторович"
"SFSTRY0014564","(О)SETPAYPROCESSPARAMLIST Создаем процесс оплаты с параметрами для СБОЛ","0","Work in progress","","Байкал","","Орлова Наталья Валерьевна"
"SFSTRY0016685","[Техдолг] [Сервис оплаты] Доработки ответа метода API статуса транзакции рекуррентной оплаты","0","Testing","","Байкал","","Шувалов Борис Викторович"
"SFSTRY0017186","(Б)Сопровождение PR SSO","0","Work in progress","","Байкал","","Шувалов Борис Викторович"
"SFSTRY0017597","Взаимодействия внутри команды в рамках итерации PI 11.1 по фрэймворку SAFe","0","Work in progress","","Байкал","Григорьев Константин Владимирович, Киклевич Андрей Олегович, Ларионов Константин Александрович, Никитина Алла Гургеновна, Орлова Наталья Валерьевна, Пушкарь Илья Андреевич, Фёклин Александр Александрович, Шувалов Борис Викторович, Амплеев Евгений Михайлович, Кайнов Илья Михайлович",""
