"number","short_description","story_points","state","u_close_code","assignment_group","additional_assignee_list","assigned_to"
"SFSTRY0019573","[ОN] Доработать метод инициирующий создание процесса оплаты","3","Draft","","Байкал","Никитина Алла Гургеновна","Орлова Наталья Валерьевна"
"SFSTRY0019740","[ПБOА] НСЖ ИФЛ / Согласование бизнес требований","3","Draft","","Байкал","Орлова Наталья Валерьевна, Шувалов Борис Викторович, Киклевич Андрей Олегович","Пушкарь Илья Андреевич"
"SFSTRY0015638","PI11 -> PI12 [NК] Убытки МП / Сохранять координаты (Не распознается адрес)","2","Work in progress","","Байкал","Никитина Алла Гургеновна","Григорьев Константин Владимирович"
"SFSTRY0020068","[ФБOA] Предрасчеты в ЛК : анализ технических возможностей и ограничений","2","Draft","","Байкал","Шувалов Борис Викторович, Орлова Наталья Валерьевна, Киклевич Андрей Олегович","Фёклин Александр Александрович"
"SFSTRY0010900","[ФКА] Убытки МП / Заявление убытка КАСКО по архивному полису (доработка заявления убытка для кейса: дата инцидента совпадает с датой окончания действия полиса)","2","Draft","","Байкал","Фёклин Александр Александрович, Киклевич Андрей Олегович","Григорьев Константин Владимирович"
"SFSTRY0020045","Проверка сборки ЛК с открытым урегулированием убытков и выкладка на бой","1","Draft","","Байкал","Фёклин Александр Александрович","Шувалов Борис Викторович"
"SFSTRY0019789","[ФБO] СББОЛ / Спайк по требованиям разработки UI части сервиса + отображение статуса оплаты  ","1","Draft","","Байкал","Орлова Наталья Валерьевна, Фёклин Александр Александрович","Шувалов Борис Викторович"
"SFSTRY0019061","PI11 -> PI12 [Б] API для ПЛ Союз / передача 2 доп параметров","1","Work in progress","","Байкал","Киклевич Андрей Олегович","Шувалов Борис Викторович"
"SFSTRY0019787","[Б] СББОЛ / Ingos.Payment.Frontend: настройка выкладки ui на тесте","1","Draft","","Байкал","","Шувалов Борис Викторович"
"SFSTRY0018982","PI11 -> PI12 [АК] МП убытки. КАСКО. Заданы не все параметры запроса.(Не указано значение обязательного параметра (participantname))","1","Testing","","Байкал","Киклевич Андрей Олегович","Григорьев Константин Владимирович"
"SFSTRY0019941","[ФБ] Прекращение из ЛК : Подготовка описания сценария UI для подрядчика Agima + эскизы форм","1","Work in progress","","Байкал","Шувалов Борис Викторович","Фёклин Александр Александрович"
"SFSTRY0020312","Взаимодействия внутри команды в рамках итерации PI 12.1 по методологии SAFe","0","Work in progress","","Байкал","Григорьев Константин Владимирович, Киклевич Андрей Олегович, Кучаев Игорь Валерьевич, Никитина Алла Гургеновна, Орлова Наталья Валерьевна, Пушкарь Илья Андреевич, Фёклин Александр Александрович, Шувалов Борис Викторович","Амплеев Евгений Михайлович"
"SFSTRY0020345","Support активности и консультации в рамках итерации PI 12.1","0","Work in progress","","Байкал","Григорьев Константин Владимирович, Киклевич Андрей Олегович, Кучаев Игорь Валерьевич, Никитина Алла Гургеновна, Орлова Наталья Валерьевна, Пушкарь Илья Андреевич, Фёклин Александр Александрович, Шувалов Борис Викторович","Кайнов Илья Михайлович"
"SFSTRY0019363","PI11 -> PI12 [О] Поиск подтверждения email в верхнем регистре test@Lego.ru","0","Testing","","Байкал","Пушкарь Илья Андреевич, Киклевич Андрей Олегович","Орлова Наталья Валерьевна"
