"number","short_description","story_points","state","u_close_code","assignment_group","additional_assignee_list","assigned_to"
"user_story_1","Реализация функционала reCAPTCHA в инфраструктуре INGOS.RU","13","В работе","","Байкал","Аркадий, Татьяна, Василий","Василий"
"user_story_2","SSO / Доработки [Б]","8","В работе","","Байкал","Татьяна","Аркадий"
"user_story_3","[ДМС] Подготовка тестовых данных + консультации для команды Ювентус - для ДЕМО по РФ ДМС","2","В работе","","Байкал","Татьяна","Василий"
"user_story_4","Настройка Visual Studio 2017","1","В работе","","Байкал","","Татьяна"
"user_story_5","Взаимодействия внутри команды в рамках итерации PI 8.4 по методологии SAFE","3","В работе","","Байкал","Аркадий, Татьяна","Василий"
"user_story_6","http://wiki.corp.ingos.ru/pages/viewpage.action?pageId=96967898","5","В работе","Выполнено","Байкал","Аркадий, Татьяна","Василий"
