"number","short_description","story_points","state","u_close_code","assignment_group","additional_assignee_list","assigned_to"
"SFSTRY0011564","[PI 9.2] Франшиза по ДМС : Доработка 2-х методов АИС после модификации связей командой Аспирин [НNФ]","3","Draft","","Байкал","Фёклин Александр Александрович, Никитина Алла Гургеновна","Орлова Наталья Валерьевна"
"SFSTRY0011548","[PI 9.2] Франшиза по ДМС : Скачивание PDF счета ЗХ по настроенному шаблону (API + АИС) + описание для Агимы [БНФ]","3","Work in progress","","Байкал","Орлова Наталья Валерьевна, Шувалов Борис Викторович","Фёклин Александр Александрович"
"SFSTRY0010425","[PI 9.2] ЛК ДМС : в списке ЛПУ выводить предупреждение для клиник с регрессной франшизой [БФN]","2","Work in progress","","Байкал","Фёклин Александр Александрович, Киклевич Андрей Олегович","Шувалов Борис Викторович"
"SFSTRY0011580","[PI 9.2] Заявление КАСКО в МП : Доработать check...part1 Выводить только 1го ЛДУ в случае запроса не от страхователя [КА]","2","Draft","","Байкал","Киклевич Андрей Олегович","Григорьев Константин Владимирович"
"SFSTRY0010659","[PI 9.1] Автоплатежи в ЛК : При списании 1 руб. для привязки карты фиксировать bindingID в созданном процессе + событие ЛК в карточке клиента [НNФ]","2","Testing","","Байкал","Никитина Алла Гургеновна, Фёклин Александр Александрович","Орлова Наталья Валерьевна"
"SFSTRY0011573","[PI 9.2] Франшиза по ДМС : В уведомлениях информировать клиента, что расшифровка счета ЗХ доступна в ЛК [НNФ]","1","Ready for testing","","Байкал","Фёклин Александр Александрович, Никитина Алла Гургеновна","Орлова Наталья Валерьевна"
"SFSTRY0011805","В случае отказа в возмещении по КАСКО/ОСАГО некорректно заполняется последняя стадия в методе USER.GETCLAIMLIST3","1","Testing","","Байкал","Фёклин Александр Александрович, Киклевич Андрей Олегович","Григорьев Константин Владимирович"
"SFSTRY0011586","[PI 9.2] Заявление ОСАГО в МП : Спайк. Определение роли в убытке ПВУ (722-75-3859063/20) [К]","1","Draft","","Байкал","","Григорьев Константин Владимирович"
"SFSTRY0011516","[PI 9.2] Онлайн оплата ОСАГО : Изменение сценария выпуска ОСАГО [ИНА]","1","Draft","","Байкал","Никитина Алла Гургеновна, Пушкарь Илья Андреевич, Киклевич Андрей Олегович","Орлова Наталья Валерьевна"
"SFSTRY0011717","Взаимодействия внутри команды в рамках итерации PI 9.2 по методологии SAFe","0","Work in progress","","Байкал","Григорьев Константин Владимирович, Киклевич Андрей Олегович, Никитина Алла Гургеновна, Орлова Наталья Валерьевна, Пушкарь Илья Андреевич, Фёклин Александр Александрович, Шувалов Борис Викторович","Амплеев Евгений Михайлович"
"SFSTRY0011576","[PI 9.2] Онлайн заявки по КИС : отключить ограничение для агентов Московского региона (1/2 SP) [Ф]","0","Complete","Completed","Байкал","Ильдинбаев Бахтияр Казамханович, Шувалов Борис Викторович, Никитина Алла Гургеновна, Киклевич Андрей Олегович, Фёклин Александр Александрович, Григорьев Константин Владимирович, Орлова Наталья Валерьевна, Пушкарь Илья Андреевич, Хабибуллин Дамир Наилевич, Кайнов Илья Михайлович, Амплеев Евгений Михайлович","Фёклин Александр Александрович"
