"number","short_description","story_points","state","u_close_code","assignment_group","additional_assignee_list","assigned_to"
"SFSTRY0019216","Отправка в РСА 2.0 корректных кодов типов документов на ТС и ВУ в зависимости от страны документа","8","Draft","","Форсаж","",""
"SFSTRY0020437","Инциденты","7","Work in progress","","Форсаж","Ковинька Андрей Александрович, Копылов Михаил Валерьевич, Булыкин Дмитрий Николаевич","ТОЛЧЕНОВА ОЛЬГА СЕРГЕЕВНА"
"SFSTRY0019809","Тарифы ОСАГО: корректность расчета премии в аддендумах","5","Complete","Cancelled","Форсаж","ТОЛЧЕНОВА ОЛЬГА СЕРГЕЕВНА, Копылов Михаил Валерьевич, Булыкин Дмитрий Николаевич, Амплеев Евгений Михайлович, Комарова Мария Александровна, Тимошенко Леонид Геннадьевич, Ковинька Андрей Александрович","Булыкин Дмитрий Николаевич"
"SFSTRY0017513","S4->S5 Реализовать форму вывода данных по заключенным договорам ОСАГО ЮЛ в ЛК","3","Testing","","Форсаж","Булыкин Дмитрий Николаевич, Копылов Михаил Валерьевич, ТОЛЧЕНОВА ОЛЬГА СЕРГЕЕВНА","Ковинька Андрей Александрович"
"SFSTRY0016819","S4->S5 Учет особеннстей РСА в части ссылок РВС","3","Testing","","Форсаж","Булыкин Дмитрий Николаевич","ТОЛЧЕНОВА ОЛЬГА СЕРГЕЕВНА"
"SFSTRY0020827","Отображение ошибок в отчете ""Новое логирование для ЦБ""","2","Ready","","Форсаж","","Копылов Михаил Валерьевич"
"SFSTRY0019458","Адаптация повторного вызова метода RSA.STARTPROJECTдля  запроса сканов на МП","1","Draft","","Форсаж","","Копылов Михаил Валерьевич"
"SFSTRY0020797","Доработка валидации на шаге указания водителей в анкете для ЮЛ","0","Work in progress","","Форсаж","Булыкин Дмитрий Николаевич","Ковинька Андрей Александрович"
