"number","short_description","story_points","state","u_close_code","assignment_group","additional_assignee_list","assigned_to"
"SFSTRY0007337","Создание убытка по договору ОСАГО из IngoMobile (версия 1.0 - MVP) CHG0054509","5","В работе","","Байкал","Никитина Алла Гургеновна","Григорьев Константин Владимирович"
"SFSTRY0006803","[PI 6.3] ЛК. ДМС - автоплатежи :  Отключение автоплатежа по франшизе в полисе ДМС [ФБНА] CHG0054554","3","Завершено","Выполнено","Байкал","Шувалов Борис Викторович, Орлова Наталья Валерьевна, Киклевич Андрей Олегович","Фёклин Александр Александрович"
"SFSTRY0007603","В одной строчке убрать обязательность одного параметра. АИС CHG0054598","1","Завершено","Выполнено","Байкал","","Григорьев Константин Владимирович"
"SFSTRY0006799","[PI 6.3] Сайт убытки : Дополнение списка СТОА по ОСАГО stoa.xls [НИ]","2","Завершено","Выполнено","Байкал","Васильков Илья Александрович","Орлова Наталья Валерьевна"
"SFSTRY0006802","[PI 6.3] ЛК. ДМС - автоплатежи :  Вывод блока автоплатеж по франшизе в подробной инфо по ДМС [ФБА] CHG0054901","2","Тестирование","","Байкал","Шувалов Борис Викторович, Киклевич Андрей Олегович, Морозов Роман Александрович","Фёклин Александр Александрович"
"SFSTRY0006855","[PI 6.4] ИГС-Жизнь : Добавление контакт. инф-и о кураторе страх. случая в подробной инфо [РФТ]","3","Черновик","","Байкал","Морозов Роман Александрович, Павлухина Татьяна Равильевна","Фёклин Александр Александрович"
"SFSTRY0006798","[PI 6.3] ИГС-Ж, МП - определение мерчанта: Новый метод по определению мерчанта [Н] CHG0054403","1","Завершено","Выполнено","Байкал","Шувалов Борис Викторович, Пушина Наталья Сергеевна, Павлухина Татьяна Равильевна, Никитина Алла Гургеновна, Фёклин Александр Александрович","Орлова Наталья Валерьевна"
"SFSTRY0007402","ЛК-Автоплатежи. Доработка метода списания 1 рубля CHG0054593","3","Завершено","Выполнено","Байкал","Шувалов Борис Викторович, Пушина Наталья Сергеевна, Павлухина Татьяна Равильевна, Фёклин Александр Александрович","Орлова Наталья Валерьевна"
"SFSTRY0006451","[PI 6.2]  Оплата регресса: Корректная фиксация онлайн оплаты счета по регрессу в АИС [НП]","3","В работе","","Байкал","Пушина Наталья Сергеевна","Орлова Наталья Валерьевна"
"SFSTRY0007533","Подготовка тестовых данных по всем видам страхования. В разных фазах. КАСКО, ОСАГО.","3","Черновик","","Байкал","Киклевич Андрей Олегович, Никитина Алла Гургеновна","Киклевич Андрей Олегович"
"SFSTRY0007137","ЛК-автоплатежи: добавить блок настройки автоплатежа в подробную инфо о полисе CHG0054877","3","Тестирование","","Байкал","Пушина Наталья Сергеевна, Никитина Алла Гургеновна","Морозов Роман Александрович"
"SFSTRY0006791","[PI 6.3] ЛК, МП - программа лояльности:  Активация пользователя в ПЛ при регистрации + из раздела ПЛ [ПТ]","1","Завершено","Выполнено","Байкал","Павлухина Татьяна Равильевна","Пушина Наталья Сергеевна"
"SFSTRY0007170","МП Убытки : Метод получения данных о полисе ОСАГО (ЗНИ CHG0053959)","2","Завершено","Выполнено","Байкал","Никитина Алла Гургеновна","Григорьев Константин Владимирович"
"SFSTRY0006792","[PI 6.3] ЛК, МП - программа лояльности :  Размещение виджета ПЛ на рабочем столе в ЛК [РПТ] CHG0054803","2","Тестирование","","Байкал","Пушина Наталья Сергеевна, Павлухина Татьяна Равильевна, Никитина Алла Гургеновна, Орлова Наталья Валерьевна","Морозов Роман Александрович"
"SFSTRY0005425","[PI 6.4] Онлайн ДМС : Ошибка в методе MOBILE.MEDLK.MedGetAgrList [Ф]","1","Черновик","","Байкал","","Фёклин Александр Александрович"
