"number","short_description","story_points","state","u_close_code","assignment_group","additional_assignee_list","assigned_to"
"SFSTRY0020980","СПАЙК: Разработать алгоритм переотправки договора и всех его состояний","5","Complete","Completed","Феникс","Тимошенко Леонид Геннадьевич, Коршикова Анастасия Олеговна, Беркова Анна Николаевна, Чалая Юлия Николаевна, Блинов Сергей Николаевич, Кучевский Кирилл Андреевич, Амплеев Евгений Михайлович, Мишуков Александр Витальевич, Тараскин Дмитрий Александрович, Измайлов Максим Андреевич","Беркова Анна Николаевна"
"SFSTRY0020288","Создание отчетов Excel в АИС по ошибкам отправки изменения статусов БСО ОСАГО в РСА 2.0 (по дате отправки/по дате операции БСО)","2","Complete","Completed","Феникс","Тимошенко Леонид Геннадьевич, Коршикова Анастасия Олеговна, Беркова Анна Николаевна, Блинов Сергей Николаевич, Кучевский Кирилл Андреевич, Амплеев Евгений Михайлович, Мишуков Александр Витальевич, Тараскин Дмитрий Александрович, Измайлов Максим Андреевич","Мишуков Александр Витальевич"
"SFSTRY0021245","Спайк. Минимизация ошибок в отправке изменений статусов БСО ОСАГО в РСА 2.0","1","Complete","Completed","Феникс","Тимошенко Леонид Геннадьевич, Коршикова Анастасия Олеговна, Беркова Анна Николаевна, Чалая Юлия Николаевна, Блинов Сергей Николаевич, Кучевский Кирилл Андреевич, Амплеев Евгений Михайлович, Мишуков Александр Витальевич, Тараскин Дмитрий Александрович, Измайлов Максим Андреевич","Мишуков Александр Витальевич"
"SFSTRY0021244","Реализовать новый контроль, позволяющий проверять корректность заполнения поля kbmRequestId (код 12001002)","1","Complete","Ready for Release","Феникс","Тимошенко Леонид Геннадьевич, Коршикова Анастасия Олеговна, Беркова Анна Николаевна, Чалая Юлия Николаевна, Блинов Сергей Николаевич, Кучевский Кирилл Андреевич, Амплеев Евгений Михайлович, Мишуков Александр Витальевич, Тараскин Дмитрий Александрович, Измайлов Максим Андреевич","Блинов Сергей Николаевич"
