"number","short_description","story_points","state","u_close_code","assignment_group","additional_assignee_list","assigned_to"
"SFSTRY0011588","[PI 9.3] Франшиза по ДМС : Метод АИС получения списка счетов по застрахованному, фильтр по ISN объекта [ФНN]","3","Work in progress","","Байкал","Фёклин Александр Александрович, Никитина Алла Гургеновна","Орлова Наталья Валерьевна"
"SFSTRY0011589","[PI 9.3] Франшиза по ДМС : Выводить историю оплаченных счетов по франшизе в подробной инфо о полисе ДМС [БФN]","3","Draft","","Байкал","Фёклин Александр Александрович, Никитина Алла Гургеновна, Орлова Наталья Валерьевна","Шувалов Борис Викторович"
"SFSTRY0011564","[PI 9.2] Франшиза по ДМС : Аудит методов АИС + ретест сценариев после модификации структуры связей командой Аспирин [НNФ]","3","Ready","","Байкал","Фёклин Александр Александрович, Никитина Алла Гургеновна","Орлова Наталья Валерьевна"
"SFSTRY0011580","[PI 9.2] Заявление КАСКО в МП : Доработать check...part1 Выводить только 1го ЛДУ в случае запроса не от страхователя [КА]","2","Work in progress","","Байкал","Киклевич Андрей Олегович, Пушкарь Илья Андреевич","Григорьев Константин Владимирович"
"SFSTRY0011586","[PI 9.2] Заявление ОСАГО в МП : Спайк. Определение роли в убытке ПВУ (722-75-3859063/20) [К]","1","Draft","","Байкал","Пушкарь Илья Андреевич","Григорьев Константин Владимирович"
"SFSTRY0010641","s2->s3 Сервис оплаты : В ответе AIS.WSAGRPAYUTILS.getInvoicePayments добавить новые тэги DoDiscount, PaymentType для плановых оплат","1","Complete","Ready for Release","Байкал","Ильдинбаев Бахтияр Казамханович, Шувалов Борис Викторович, Никитина Алла Гургеновна, Киклевич Андрей Олегович, Фёклин Александр Александрович, Григорьев Константин Владимирович, Орлова Наталья Валерьевна, Пушкарь Илья Андреевич, Хабибуллин Дамир Наилевич, Кайнов Илья Михайлович, Амплеев Евгений Михайлович","Орлова Наталья Валерьевна"
"SFSTRY0011587","[PI 9.3] Франшиза по ДМС : В ближайших действиях ЛК вывести ссылку на скачивание PDF счета ЗХ [ФБN]","1","Ready","","Байкал","Шувалов Борис Викторович, Орлова Наталья Валерьевна, Киклевич Андрей Олегович","Фёклин Александр Александрович"
"SFSTRY0012618","Спайк на рса 2.0","1","Work in progress","","Байкал","Орлова Наталья Валерьевна, Киклевич Андрей Олегович","Пушкарь Илья Андреевич"
"SFSTRY0011262","s2->s3 [PI 9.2] Доработка методов API для регистрации в ЛК","1","Complete","Deployed","Байкал","Ильдинбаев Бахтияр Казамханович, Шувалов Борис Викторович, Никитина Алла Гургеновна, Киклевич Андрей Олегович, Фёклин Александр Александрович, Григорьев Константин Владимирович, Орлова Наталья Валерьевна, Пушкарь Илья Андреевич, Хабибуллин Дамир Наилевич, Кайнов Илья Михайлович, Амплеев Евгений Михайлович","Шувалов Борис Викторович"
"SFSTRY0011718","Взаимодействия внутри команды в рамках итерации PI 9.3 по методологии SAFe","0","Work in progress","","Байкал","Григорьев Константин Владимирович, Киклевич Андрей Олегович, Никитина Алла Гургеновна, Орлова Наталья Валерьевна, Пушкарь Илья Андреевич, Фёклин Александр Александрович, Шувалов Борис Викторович","Амплеев Евгений Михайлович"
