"number","short_description","story_points","state","u_close_code","assignment_group","additional_assignee_list","assigned_to"
"SFSTRY0014565","(О)СББОЛ / CREATEINVOICESBOL  Создание счета для Черновика ПП СББОЛ","4","Draft","","Байкал","","Орлова Наталья Валерьевна"
"SFSTRY0016923","(ПОА)Скидка WSM : Методы АИС по проверке и добавлению рабочего e-mail партнера в карточке пользователя ЛК","3","Work in progress","","Байкал","Пушкарь Илья Андреевич, Киклевич Андрей Олегович","Орлова Наталья Валерьевна"
"SFSTRY0018083","Доработать вывод номера заявки союза в tasklist","3","Draft","","Байкал","","Кучаев Игорь Валерьевич"
"SFSTRY0013650","(ЛФН)Убытки в ЛК : в API модифицировать вывод и скачивание файлов по документам, подготовленным страховщиком","3","Draft","","Байкал","Шувалов Борис Викторович, Фёклин Александр Александрович, Никитина Алла Гургеновна","Ларионов Константин Александрович"
"SFSTRY0017069","(ОФН)Автоплатежи взносов по Авантаж : Функция создания очереди на автосписание по выставленному счету","2","Draft","","Байкал","Фёклин Александр Александрович, Никитина Алла Гургеновна","Орлова Наталья Валерьевна"
"SFSTRY0011740","Скорректировать информацию о сроках обработки заявки КБМ и внесению изменений","2","Draft","","Байкал","Фёклин Александр Александрович","Кучаев Игорь Валерьевич"
"SFSTRY0015477","Скрыть блок заказа БСО в ЛК","2","Testing","","Байкал","Киклевич Андрей Олегович, Фёклин Александр Александрович","Ларионов Константин Александрович"
"SFSTRY0015475","(ЛФН)ЛК ДМС : доработка отображения инфо о регрессной франшизе в методе API списка ЛПУ","2","Work in progress","","Байкал","Фёклин Александр Александрович, Никитина Алла Гургеновна","Ларионов Константин Александрович"
"SFSTRY0017047","(КПА)В заявление на выплату убытка ИФЛ изменить  в памятке подставляемый компетентный орган","2","Work in progress","","Байкал","Пушкарь Илья Андреевич, Киклевич Андрей Олегович","Григорьев Константин Владимирович"
"SFSTRY0018055","(О)[СББОЛ] Payment.SbbolConnector","2","Draft","","Байкал","","Орлова Наталья Валерьевна"
"SFSTRY0016921","(ОАП)Скидка WSM : Получение информации из АИС о наличии действующего признака скидки WSM, с учетом срока действия атрибута","2","Draft","","Байкал","Киклевич Андрей Олегович, Пушкарь Илья Андреевич","Орлова Наталья Валерьевна"
"SFSTRY0017147","(Б)[СББОЛ] Сервис Payment.Backend","2","Work in progress","","Байкал","","Шувалов Борис Викторович"
"SFSTRY0014454","(ФБА)S4->S5->S1[ФБА] Приемка доработок онлайн оплаты и ближайших действий в ЛК","1","Ready","","Байкал","Шувалов Борис Викторович, Киклевич Андрей Олегович, Кучаев Игорь Валерьевич","Фёклин Александр Александрович"
"SFSTRY0018091","Спайк: отладка метода отправки заявки на создание карты в Банк СОЮЗ","1","Draft","","Байкал","Ларионов Константин Александрович","Кучаев Игорь Валерьевич"
"SFSTRY0018017","(Б)[СББОЛ] Сервис Payment.Gateway","1","Draft","","Байкал","","Шувалов Борис Викторович"
"SFSTRY0017187","(Б)Сопровождение PR SSO","0","Work in progress","","Байкал","","Шувалов Борис Викторович"
"SFSTRY0011099","(ФКN)S4->S5[ФКN][PI 10] Онлайн убытки КАСКО/ОСАГО : скорректировать формирование чек-листа в методе USER.GETCLAIMLIST3","0","Testing","","Байкал","Фёклин Александр Александрович, Никитина Алла Гургеновна","Григорьев Константин Владимирович"
"SFSTRY0017146","S1->S2(БO)[СББОЛ] Спайк. Проработка решения Сбербанк Бизнес Онлайн","0","Complete","Completed","Байкал","Шувалов Борис Викторович, Никитина Алла Гургеновна, Киклевич Андрей Олегович, Фёклин Александр Александрович, Григорьев Константин Владимирович, Орлова Наталья Валерьевна, Ларионов Константин Александрович, Мохов Денис Александрович, Пушкарь Илья Андреевич, Кучаев Игорь Валерьевич, Кайнов Илья Михайлович, Амплеев Евгений Михайлович","Шувалов Борис Викторович"
"SFSTRY0018109","Support активности и консультации в рамках итерации PI 11.2","0","Work in progress","","Байкал","Григорьев Константин Владимирович, Киклевич Андрей Олегович, Кучаев Игорь Валерьевич, Ларионов Константин Александрович, Никитина Алла Гургеновна, Орлова Наталья Валерьевна, Пушкарь Илья Андреевич, Фёклин Александр Александрович, Шувалов Борис Викторович","Кайнов Илья Михайлович"
"SFSTRY0012966","ДАиЗИ / reCAPTCHA v3 на форме авторизации и восстановления пароля","0","Complete","Completed","Байкал","Шувалов Борис Викторович, Никитина Алла Гургеновна, Киклевич Андрей Олегович, Фёклин Александр Александрович, Григорьев Константин Владимирович, Орлова Наталья Валерьевна, Ларионов Константин Александрович, Мохов Денис Александрович, Пушкарь Илья Андреевич, Кучаев Игорь Валерьевич, Кайнов Илья Михайлович, Амплеев Евгений Михайлович","Шувалов Борис Викторович"
"SFSTRY0018008","(Б)[ЛК] Обновление дистрибутива UI","0","Complete","Ready for Release","Байкал","Шувалов Борис Викторович, Никитина Алла Гургеновна, Киклевич Андрей Олегович, Фёклин Александр Александрович, Григорьев Константин Владимирович, Орлова Наталья Валерьевна, Ларионов Константин Александрович, Мохов Денис Александрович, Пушкарь Илья Андреевич, Кучаев Игорь Валерьевич, Кайнов Илья Михайлович, Амплеев Евгений Михайлович","Шувалов Борис Викторович"
"SFSTRY0016918","S1->S2(ПОЛН)Скидка WSM : Проработка сценария использования + подготовка требований к Front-end для подрядчика","0","Complete","Completed","Байкал","Шувалов Борис Викторович, Никитина Алла Гургеновна, Киклевич Андрей Олегович, Фёклин Александр Александрович, Григорьев Константин Владимирович, Орлова Наталья Валерьевна, Ларионов Константин Александрович, Мохов Денис Александрович, Пушкарь Илья Андреевич, Кучаев Игорь Валерьевич, Кайнов Илья Михайлович, Амплеев Евгений Михайлович","Пушкарь Илья Андреевич"
"SFSTRY0018100","Взаимодействия внутри команды в рамках итерации PI 11.2 по методологии SAFe","0","Work in progress","","Байкал","Григорьев Константин Владимирович, Киклевич Андрей Олегович, Кучаев Игорь Валерьевич, Ларионов Константин Александрович, Никитина Алла Гургеновна, Орлова Наталья Валерьевна, Пушкарь Илья Андреевич, Фёклин Александр Александрович, Шувалов Борис Викторович","Амплеев Евгений Михайлович"
