"number","short_description","story_points","state","u_close_code","assignment_group","additional_assignee_list","assigned_to"
"SFSTRY0011482","[PI 9.1] Замена ссылки на анкету ОСАГО на popup авторизованного пользователя в шапке сайта","0","Ready","","Байкал","","Шувалов Борис Викторович"
"SFSTRY0011455","[PI 9.1] Компетенции по тестированию : онлайн оформление ОСАГО + аддендумы [АN]","2","Work in progress","","Байкал","Киклевич Андрей Олегович, Никитина Алла Гургеновна","Пушкарь Илья Андреевич"
"SFSTRY0011156","[PI 9.1] SSO : Синхронизация нового механизма кеширования и сессий между ветками SSO и develop. Консультирование команды Ракета (1/2 SP)","1","Work in progress","","Байкал","","Шувалов Борис Викторович"
"SFSTRY0010687","[PI 9.1] Франшиза по ДМС : Отключить проверку срока оплаты счета ЗХ перед онлайн оплатой и при автосписании [НNФ]","2","Work in progress","","Байкал","Никитина Алла Гургеновна, Фёклин Александр Александрович, Григорьев Константин Владимирович","Орлова Наталья Валерьевна"
"SFSTRY0011328","[PI 9.1] Доработка API ЛК для сайта ""Высота"" : Метод регистрации заявки [Б]","1","Work in progress","","Байкал","","Шувалов Борис Викторович"
"SFSTRY0011499","[PI 9.1] Заявление КАСКО в МП : Дополнить описание рисков для CheckClaimKASKO_part1 [К]","1","Complete","Completed","Байкал","Ильдинбаев Бахтияр Казамханович, Шувалов Борис Викторович, Никитина Алла Гургеновна, Киклевич Андрей Олегович, Фёклин Александр Александрович, Григорьев Константин Владимирович, Орлова Наталья Валерьевна, Пушкарь Илья Андреевич, Хабибуллин Дамир Наилевич, Кайнов Илья Михайлович, Амплеев Евгений Михайлович","Григорьев Константин Владимирович"
"SFSTRY0011463","[PI 9.1] Доработка оплаты ОСАГО на тестовой среде для команды Форсаж [Н]","1","Ready","","Байкал","","Орлова Наталья Валерьевна"
"SFSTRY0011221","[PI 9.1] Сервис оплаты : получать ISN клиента (clientisn) и передавать его в метод получения файла [БN]","0","Ready for testing","","Байкал","","Шувалов Борис Викторович"
"SFSTRY0008288","[PI 9.1] Доработка по фидам Яндекса [ИБНN]","1","Testing","","Байкал","Орлова Наталья Валерьевна, Шувалов Борис Викторович, Никитина Алла Гургеновна","Никитина Алла Гургеновна"
"SFSTRY0010659","[PI 9.1] Автоплатежи в ЛК : При списании 1 руб. для привязки карты фиксировать bindingID в созданном процессе + создавать очередь в карточке клиента [НNФ]","3","Draft","","Байкал","Никитина Алла Гургеновна, Фёклин Александр Александрович","Орлова Наталья Валерьевна"
"SFSTRY0011501","[PI 9.1] Заявление ОСАГО в МП : Отправка запроса в РСА по номеру БСО sendRSAinfoRequest [К]","1","Work in progress","","Байкал","","Григорьев Константин Владимирович"
"SFSTRY0010676","[PI 9.1] Франшиза по ДМС : протестировать доработку ссылки на онлайн оплату счета ЗХ в API ЛК [БНNФ]","2","Ready for testing","","Байкал","Шувалов Борис Викторович, Орлова Наталья Валерьевна, Фёклин Александр Александрович","Никитина Алла Гургеновна"
"SFSTRY0011459","[PI 9.1] Спайк : процесс онлайн оформления аддендума ОСАГО ""как есть"" [ИБНК]","2","Work in progress","","Байкал","Шувалов Борис Викторович, Орлова Наталья Валерьевна, Григорьев Константин Владимирович","Пушкарь Илья Андреевич"
