"number","short_description","story_points","state","u_close_code","assignment_group","additional_assignee_list","assigned_to"
"SFSTRY0011591","[PI 9.3] Заявление КАСКО в МП : Возможность при заявлении убытка указывать более 2-х (до 10-ти) участников ДТП [КИА]","3","Work in progress","","Байкал","Пушкарь Илья Андреевич, Киклевич Андрей Олегович, Никитина Алла Гургеновна, Григорьев Константин Владимирович","Орлова Наталья Валерьевна"
"SFSTRY0010718","[PI 9.4] ЛК : Приёмка front-end урегулирования страховых событий КАСКО , ОСАГО [АФ]","3","Work in progress","","Байкал","","Фёклин Александр Александрович"
"SFSTRY0011590","[PI 9.3] Заявление КАСКО в МП : Сортировка отображения рисков при оформлении убытка [КИА]","2","Work in progress","","Байкал","Пушкарь Илья Андреевич, Киклевич Андрей Олегович, Орлова Наталья Валерьевна, Никитина Алла Гургеновна","Григорьев Константин Владимирович"
"SFSTRY0013037","[PI 9.3] РСА 2.0 : Модификация онлайн аддендума по ОСАГО (без контролей) [ИБА] - без тестирования","2","Work in progress","","Байкал","Никитина Алла Гургеновна, Пушкарь Илья Андреевич","Шувалов Борис Викторович"
"SFSTRY0008703","[PI 9.4] ЛК : Приёмка UI страховых событий ИФЛ , ГО , КИС [АФК]","2","Draft","","Байкал","Григорьев Константин Владимирович","Фёклин Александр Александрович"
"SFSTRY0011589","[PI 9.3] s3->s4 Франшиза по ДМС : Выводить историю оплаченных счетов по франшизе в подробной инфо о полисе ДМС [БФN]","2","Testing","","Байкал","Фёклин Александр Александрович, Никитина Алла Гургеновна, Орлова Наталья Валерьевна","Шувалов Борис Викторович"
"SFSTRY0011564","[PI 9.2] s3->s4 Франшиза по ДМС : Доработка методов АИС + ретест сценариев после модификации структуры связей командой Аспирин [НNФ]","2","Testing","","Байкал","Фёклин Александр Александрович, Никитина Алла Гургеновна","Орлова Наталья Валерьевна"
"SFSTRY0011155","[PI 9.4] SSO: Компонент аутентификации Angular 6. Доработки [Б]","1","Work in progress","","Байкал","","Шувалов Борис Викторович"
"SFSTRY0011588","[PI 9.3] s3->s4 Франшиза по ДМС : Метод АИС получения списка счетов по застрахованному, фильтр по ISN объекта [ФНN]","1","Complete","Ready for Release","Байкал","Ильдинбаев Бахтияр Казамханович, Шувалов Борис Викторович, Никитина Алла Гургеновна, Киклевич Андрей Олегович, Фёклин Александр Александрович, Григорьев Константин Владимирович, Орлова Наталья Валерьевна, Пушкарь Илья Андреевич, Хабибуллин Дамир Наилевич, Кайнов Илья Михайлович, Амплеев Евгений Михайлович","Орлова Наталья Валерьевна"
"SFSTRY0011719","Взаимодействия внутри команды в рамках итерации PI 9.4 по методологии SAFe","0","Work in progress","","Байкал","Шувалов Борис Викторович, Никитина Алла Гургеновна, Григорьев Константин Владимирович, Киклевич Андрей Олегович, Орлова Наталья Валерьевна, Пушкарь Илья Андреевич, Фёклин Александр Александрович","Амплеев Евгений Михайлович"
"SFSTRY0011716","[PI 9.4] Убытки ИФЛ в МП (спайк) : в требуемых док-тах не выводятся ""Акт обследования квартиры"", ""Заявление на выплату"" [КФ]","0","Complete","Completed","Байкал","Ильдинбаев Бахтияр Казамханович, Шувалов Борис Викторович, Никитина Алла Гургеновна, Киклевич Андрей Олегович, Фёклин Александр Александрович, Григорьев Константин Владимирович, Орлова Наталья Валерьевна, Пушкарь Илья Андреевич, Хабибуллин Дамир Наилевич, Кайнов Илья Михайлович, Амплеев Евгений Михайлович",""
"SFSTRY0013113","[BUG] Исправление ключи капчи для регресса. ","0","Complete","Ready for Release","Байкал","Ильдинбаев Бахтияр Казамханович, Шувалов Борис Викторович, Никитина Алла Гургеновна, Киклевич Андрей Олегович, Фёклин Александр Александрович, Григорьев Константин Владимирович, Орлова Наталья Валерьевна, Пушкарь Илья Андреевич, Хабибуллин Дамир Наилевич, Кайнов Илья Михайлович, Амплеев Евгений Михайлович","Шувалов Борис Викторович"
