"number","short_description","story_points","state","u_close_code","assignment_group","additional_assignee_list","assigned_to"
"SFSTRY0007167","[PI 7.1] Баг определения признака ""Мультидрайв"" для полисов ОСАГО в процессе пересмотра КБМ [НN] CHG0055226","2","Завершено","Выполнено","Байкал","Никитина Алла Гургеновна","Орлова Наталья Валерьевна"
"SFSTRY0007746","[PI 7.1] SSO : Удаление устаревшего кода и дублирования [Б]","1","В работе","","Байкал","","Шувалов Борис Викторович"
"SFSTRY0007533","[PI 7.1] ЛК : Тестовые данные + тест-кейсы для страховых событий по КАСКО, ОСАГО [ФА]","3","В работе","","Байкал","Фёклин Александр Александрович","Киклевич Андрей Олегович"
"SFSTRY0007755","[PI 7.1] МП : Включить регионы для возможности заявления убытка КАСКО [К] 1/2 SP","1","Черновик","","Байкал","","Григорьев Константин Владимирович"
"SFSTRY0007752","[PI 7.1] Спайк : Дополнение коммуникаций Онлайн-чата [Р]","1","Черновик","","Байкал","","Морозов Роман Александрович"
"SFSTRY0007189","[PI 7.1] Онлайн заявки КБМ : Модификация формы отправки заявки КБМ из ЛК [ФРN]","3","Готово для тестирования","","Байкал","Фёклин Александр Александрович, Никитина Алла Гургеновна","Морозов Роман Александрович"
"SFSTRY0007758","[PI 7.1] ЛК : Тестовые данные для формы детальной инфо по заявкам [А]","1","Завершено","Выполнено","Байкал","","Киклевич Андрей Олегович"
"SFSTRY0007759","[PI 7.1] ЛК : Тестовые данные + тест-кейсы для настройки автоплатежей по договорам [ПN]","2","Готово для тестирования","","Байкал","Никитина Алла Гургеновна","Пушина Наталья Сергеевна"
"SFSTRY0007745","[PI 7.1] SSO : Изучение нового конвейера авторизации [Б]","1","В работе","","Байкал","","Шувалов Борис Викторович"
"SFSTRY0007747","[PI 7.1] SSO : Вынос параметров авторизации в общий раздел конфигурации [Б]","1","В работе","","Байкал","","Шувалов Борис Викторович"
"SFSTRY0007337","[PI 7.1] Создание убытка по договору ОСАГО из IngoMobile (версия 1.0 - MVP) CHG0054509 [КN]","5","В работе","","Байкал","Никитина Алла Гургеновна","Григорьев Константин Владимирович"
"SFSTRY0007760","[PI 7.1] Анализ метода кросс-продуктов для МП [НП] 1/2 SP","1","Завершено","","Байкал","Пушина Наталья Сергеевна","Орлова Наталья Валерьевна"
"SFSTRY0006336","[PI 7.1] ТЗ для Агимы : добавление новой записи ЗК ; изменение ВУ и FIO лат. в профиле [Ф]","2","Черновик","","Байкал","","Фёклин Александр Александрович"
"SFSTRY0007750","[PI 7.1] SSO : Авторизация по номеру мобильного телефона [БН] CHG0055281","1","В работе","","Байкал","Шувалов Борис Викторович","Орлова Наталья Валерьевна"
"SFSTRY0007762","[PI 7.1] Спайк по сущности оплаты регресса 76 счет [Н]","1","Черновик","","Байкал","","Орлова Наталья Валерьевна"
"SFSTRY0006855","[PI 7.1] ЛК ИГС-Жизнь : Вывод контактов в подробной инфо о корп. полисе НС [РФN]","3","В работе","","Байкал","Фёклин Александр Александрович","Морозов Роман Александрович"
"SFSTRY0007748","[PI 7.1] SSO : Тестовая страница SSO на Сайте [Б]","1","В работе","","Байкал","","Шувалов Борис Викторович"
