"number","short_description","story_points","state","u_close_code","assignment_group","additional_assignee_list","assigned_to"
"SFSTRY0019740","[ПБOА] НСЖ ИФЛ / Согласование бизнес требований","3","Complete","Completed","Байкал","Шувалов Борис Викторович, Никитина Алла Гургеновна, Киклевич Андрей Олегович, Фёклин Александр Александрович, Григорьев Константин Владимирович, Орлова Наталья Валерьевна, Пушкарь Илья Андреевич, Кучаев Игорь Валерьевич, Кайнов Илья Михайлович, Амплеев Евгений Михайлович","Пушкарь Илья Андреевич"
"SFSTRY0019573","[ОN] Доработать метод инициирующий создание процесса оплаты","3","Complete","Completed","Байкал","Шувалов Борис Викторович, Никитина Алла Гургеновна, Киклевич Андрей Олегович, Фёклин Александр Александрович, Григорьев Константин Владимирович, Орлова Наталья Валерьевна, Пушкарь Илья Андреевич, Кучаев Игорь Валерьевич, Кайнов Илья Михайлович, Амплеев Евгений Михайлович","Орлова Наталья Валерьевна"
"SFSTRY0015638","PI11 -> PI12 [NК] Убытки МП / КАСКО , ОСАГО : Сохранять координаты (не распознается адрес)","2","Complete","Ready for Release","Байкал","Шувалов Борис Викторович, Никитина Алла Гургеновна, Киклевич Андрей Олегович, Фёклин Александр Александрович, Григорьев Константин Владимирович, Орлова Наталья Валерьевна, Пушкарь Илья Андреевич, Кучаев Игорь Валерьевич, Кайнов Илья Михайлович, Амплеев Евгений Михайлович","Григорьев Константин Владимирович"
"SFSTRY0020068","[ФБOA] Предрасчеты в ЛК : анализ технических возможностей и ограничений","2","Complete","Completed","Байкал","Шувалов Борис Викторович, Никитина Алла Гургеновна, Киклевич Андрей Олегович, Фёклин Александр Александрович, Григорьев Константин Владимирович, Орлова Наталья Валерьевна, Пушкарь Илья Андреевич, Кучаев Игорь Валерьевич, Кайнов Илья Михайлович, Амплеев Евгений Михайлович","Фёклин Александр Александрович"
"SFSTRY0010900","[ФКА] Убытки МП / Заявление убытка по полису КАСКО с истекшим сроком действия","2","Testing","","Байкал","Фёклин Александр Александрович, Киклевич Андрей Олегович","Григорьев Константин Владимирович"
"SFSTRY0019061","PI11 -> PI12 [Б] API для ПЛ Союз / передача 2 доп параметров","1","Complete","Ready for Release","Байкал","Шувалов Борис Викторович, Никитина Алла Гургеновна, Киклевич Андрей Олегович, Фёклин Александр Александрович, Григорьев Константин Владимирович, Орлова Наталья Валерьевна, Ларионов Константин Александрович, Пушкарь Илья Андреевич, Кучаев Игорь Валерьевич, Кайнов Илья Михайлович, Амплеев Евгений Михайлович","Шувалов Борис Викторович"
"SFSTRY0019789","[ФБO] СББОЛ / Спайк по требованиям разработки UI части сервиса + отображение статуса оплаты  ","1","Work in progress","","Байкал","Орлова Наталья Валерьевна, Фёклин Александр Александрович","Шувалов Борис Викторович"
"SFSTRY0019941","[ФБ] Прекращение из ЛК : Подготовка описания сценария UI для подрядчика Agima + эскизы форм","1","Complete","Completed","Байкал","Шувалов Борис Викторович, Никитина Алла Гургеновна, Киклевич Андрей Олегович, Фёклин Александр Александрович, Григорьев Константин Владимирович, Орлова Наталья Валерьевна, Ларионов Константин Александрович, Пушкарь Илья Андреевич, Кучаев Игорь Валерьевич, Кайнов Илья Михайлович, Амплеев Евгений Михайлович","Фёклин Александр Александрович"
"SFSTRY0018982","PI11 -> PI12 [АК] МП убытки. КАСКО. Заданы не все параметры запроса.(Не указано значение обязательного параметра (participantname))","1","Complete","Ready for Release","Байкал","Шувалов Борис Викторович, Никитина Алла Гургеновна, Киклевич Андрей Олегович, Фёклин Александр Александрович, Григорьев Константин Владимирович, Орлова Наталья Валерьевна, Пушкарь Илья Андреевич, Кучаев Игорь Валерьевич, Кайнов Илья Михайлович, Амплеев Евгений Михайлович","Григорьев Константин Владимирович"
"SFSTRY0020045","Проверка сборки ЛК с открытым урегулированием убытков и выкладка на бой","1","Complete","Completed","Байкал","Шувалов Борис Викторович, Никитина Алла Гургеновна, Киклевич Андрей Олегович, Фёклин Александр Александрович, Григорьев Константин Владимирович, Орлова Наталья Валерьевна, Пушкарь Илья Андреевич, Кучаев Игорь Валерьевич, Кайнов Илья Михайлович, Амплеев Евгений Михайлович","Шувалов Борис Викторович"
"SFSTRY0020846","Сохранять историю первого срабатывания аналитики на постоплатной странице","1","Complete","Completed","Байкал","Шувалов Борис Викторович, Никитина Алла Гургеновна, Киклевич Андрей Олегович, Фёклин Александр Александрович, Григорьев Константин Владимирович, Орлова Наталья Валерьевна, Ларионов Константин Александрович, Пушкарь Илья Андреевич, Кучаев Игорь Валерьевич, Кайнов Илья Михайлович, Амплеев Евгений Михайлович","Шувалов Борис Викторович"
"SFSTRY0019787","[Б] СББОЛ / Ingos.Payment.Frontend: настройка выкладки ui на тесте","1","Complete","Completed","Байкал","Шувалов Борис Викторович, Никитина Алла Гургеновна, Киклевич Андрей Олегович, Фёклин Александр Александрович, Григорьев Константин Владимирович, Орлова Наталья Валерьевна, Ларионов Константин Александрович, Пушкарь Илья Андреевич, Кучаев Игорь Валерьевич, Кайнов Илья Михайлович, Амплеев Евгений Михайлович","Шувалов Борис Викторович"
"SFSTRY0020904","[ПЛ] Отключить валидацию модели на сайте при запросе на выпуск карты","0","Complete","Ready for Release","Байкал","Шувалов Борис Викторович, Никитина Алла Гургеновна, Киклевич Андрей Олегович, Фёклин Александр Александрович, Григорьев Константин Владимирович, Орлова Наталья Валерьевна, Ларионов Константин Александрович, Пушкарь Илья Андреевич, Кучаев Игорь Валерьевич, Кайнов Илья Михайлович, Амплеев Евгений Михайлович","Шувалов Борис Викторович"
"SFSTRY0020883","[Сервис оплаты] Добавить запись логов сервиса в ELK","0","Complete","Completed","Байкал","Шувалов Борис Викторович, Никитина Алла Гургеновна, Киклевич Андрей Олегович, Фёклин Александр Александрович, Григорьев Константин Владимирович, Орлова Наталья Валерьевна, Ларионов Константин Александрович, Пушкарь Илья Андреевич, Кучаев Игорь Валерьевич, Кайнов Илья Михайлович, Амплеев Евгений Михайлович","Шувалов Борис Викторович"
"SFSTRY0019363","PI11 -> PI12 [О] Поиск подтверждения email в верхнем регистре test@Lego.ru","0","Complete","Ready for Release","Байкал","Шувалов Борис Викторович, Никитина Алла Гургеновна, Киклевич Андрей Олегович, Фёклин Александр Александрович, Григорьев Константин Владимирович, Орлова Наталья Валерьевна, Пушкарь Илья Андреевич, Кучаев Игорь Валерьевич, Кайнов Илья Михайлович, Амплеев Евгений Михайлович","Орлова Наталья Валерьевна"
"SFSTRY0020312","Взаимодействия внутри команды в рамках итерации PI 12.1 по методологии SAFe","0","Complete","Completed","Байкал","Шувалов Борис Викторович, Никитина Алла Гургеновна, Киклевич Андрей Олегович, Фёклин Александр Александрович, Григорьев Константин Владимирович, Орлова Наталья Валерьевна, Пушкарь Илья Андреевич, Кучаев Игорь Валерьевич, Кайнов Илья Михайлович, Амплеев Евгений Михайлович","Амплеев Евгений Михайлович"
"SFSTRY0020345","Support активности и консультации в рамках итерации PI 12.1","0","Complete","Completed","Байкал","Шувалов Борис Викторович, Никитина Алла Гургеновна, Киклевич Андрей Олегович, Фёклин Александр Александрович, Григорьев Константин Владимирович, Орлова Наталья Валерьевна, Пушкарь Илья Андреевич, Кучаев Игорь Валерьевич, Кайнов Илья Михайлович, Амплеев Евгений Михайлович","Кайнов Илья Михайлович"
