"number","short_description","story_points","state","u_close_code","assignment_group","additional_assignee_list","assigned_to"
"SFSTRY0019216","Отправка в РСА 2.0 корректных кодов типов документов на ТС и ВУ в зависимости от страны документа","8","Work in progress","","Форсаж","Копылов Михаил Валерьевич, Булыкин Дмитрий Николаевич","ТОЛЧЕНОВА ОЛЬГА СЕРГЕЕВНА"
"SFSTRY0019997","Общее тестирование ЛК ЮЛ","8","Draft","","Форсаж","","Булыкин Дмитрий Николаевич"
"SFSTRY0020440","Инциденты","5","Draft","","Форсаж","",""
"SFSTRY0016869","S4 -> S5 При заключении договоров Е-ОСАГО в ЛК ЮЛ должны добавляться ссылки/полисы заключенных договоров Е-ОСАГО.","5","Work in progress","","Форсаж","ТОЛЧЕНОВА ОЛЬГА СЕРГЕЕВНА, Булыкин Дмитрий Николаевич, Ковинька Андрей Александрович","Копылов Михаил Валерьевич"
"SFSTRY0019848","Добавление на сайте поля для определения страны ВУ и документов на ТС","5","Draft","","Форсаж","ТОЛЧЕНОВА ОЛЬГА СЕРГЕЕВНА, Копылов Михаил Валерьевич, Булыкин Дмитрий Николаевич","Ковинька Андрей Александрович"
"SFSTRY0019923","Отправка в РСА 2.0 данных по иностранным документам и водителям (тестирование)","5","Draft","","Форсаж","","Булыкин Дмитрий Николаевич"
"SFSTRY0021195","РВС: тестирование шаблонов рассылки","2","Complete","Completed","Форсаж","ТОЛЧЕНОВА ОЛЬГА СЕРГЕЕВНА, Копылов Михаил Валерьевич, Пахомов Вадим Александрович, Булыкин Дмитрий Николаевич, Амплеев Евгений Михайлович, Комарова Мария Александровна, Тимошенко Леонид Геннадьевич, Ковинька Андрей Александрович","Булыкин Дмитрий Николаевич"
"SFSTRY0021279","Логирование кодов 14, 15, 18 - Регресс тестирование","2","Testing","","Форсаж","","Булыкин Дмитрий Николаевич"
"SFSTRY0021388","Е-ОСАГО сайт: Сделать текст ошибки при быстрой регистрации более информативным","0","Work in progress","","Форсаж","","Ковинька Андрей Александрович"
"SFSTRY0021966","Выявление причин сильного падения конверсии при переходе с первого на второй шаг анкеты ОСАГО.","0","Ready for testing","","Форсаж","Ковинька Андрей Александрович",""
"SFSTRY0021935","Перенос талона ТО и ДК при автопролонгации договора  - Тестирование ","0","Testing","","Форсаж","","Булыкин Дмитрий Николаевич"
"SFSTRY0021758","S3->S4 Е-ОСАГО сайт: Исключить запрос талона ТО для спец.техники в РСА","0","Complete","Completed","Форсаж","ТОЛЧЕНОВА ОЛЬГА СЕРГЕЕВНА, Копылов Михаил Валерьевич, Булыкин Дмитрий Николаевич, Амплеев Евгений Михайлович, Комарова Мария Александровна, Тимошенко Леонид Геннадьевич, Ковинька Андрей Александрович",""
