"number","short_description","story_points","state","u_close_code","assignment_group","additional_assignee_list","assigned_to"
"SFSTRY0018502","Инциденты","8","Work in progress","","Феникс","Беркова Анна Николаевна, Блинов Сергей Николаевич, Муханов Александр Сергеевич","Измайлов Максим Андреевич"
"SFSTRY0016842","Доработка КБМ после изменении вызванных либерализацией по ОСАГО ч1","8","Testing","","Феникс","Измайлов Максим Андреевич, Чалая Юлия Николаевна","Муханов Александр Сергеевич"
"SFSTRY0018462","СПАЙК: Реализовать отображение ставки (рассчитанной с учетом факторов) в HTML файле, доступном в КД договора","5","Draft","","Феникс","","Беркова Анна Николаевна"
"SFSTRY0018460","Доработка КБМ после изменении вызванных либерализацией по ОСАГО ч2","3","Testing","","Феникс","","Муханов Александр Сергеевич"
"SFSTRY0017236","Произвести принудительный перерасчет договоров без сохранения изменений премии для формирования HTML-документа с параметрами расчета для его сохранения в КД","3","Draft","","Феникс","","Муханов Александр Сергеевич"
"SFSTRY0018463","СПАЙК: Адаптация механизма КБМ+","3","Draft","","Феникс","","Беркова Анна Николаевна"
"SFSTRY0018399","Загрузка задублированных договоров","3","Work in progress","","Феникс","","Блинов Сергей Николаевич"
"SFSTRY0016855","Реализовать отображение ставки (рассчитанной с учетом факторов) в HTML файле, доступном в КД договора","2","Ready","","Феникс","","Муханов Александр Сергеевич"
"SFSTRY0016858","03.2 Добавление нового типа задач в АИС **","1","Ready","","Феникс","Денисов Сергей Александрович, Чалая Юлия Николаевна, Муханов Александр Сергеевич, Касьянов Егор Дмитриевич, Беркова Анна Николаевна, Блинов Сергей Николаевич, Мишуков Александр Витальевич, Тараскин Дмитрий Александрович, Измайлов Максим Андреевич","Беркова Анна Николаевна"
