"number","short_description","story_points","state","u_close_code","assignment_group","additional_assignee_list","assigned_to"
"SFSTRY0019216","Отправка в РСА 2.0 корректных кодов типов документов на ТС и ВУ в зависимости от страны документа","5","Testing","","Феникс","Копылов Михаил Валерьевич, Булыкин Дмитрий Николаевич","Тимошенко Леонид Геннадьевич"
"SFSTRY0020964","Доработать запрос КБМ с учетом изменения алгоритма определения страны регистрации по ВУ","5","Work in progress","","Феникс","Пушкин Антон Сергеевич","Блинов Сергей Николаевич"
"SFSTRY0020192","Загрузка договоров ОСАГО по итогам исправления первой части ошибок РСА 2.0","3","Work in progress","","Феникс","Блинов Сергей Николаевич, Тимошенко Леонид Геннадьевич, Беркова Анна Николаевна","Мишуков Александр Витальевич"
"SFSTRY0020126","Реализовать новый контроль, позволяющий проверять заполнение поля docNumber, docType (код 12001002)","2","Complete","","Феникс","Тимошенко Леонид Геннадьевич, Коршикова Анастасия Олеговна, Беркова Анна Николаевна, Пушкин Антон Сергеевич, Блинов Сергей Николаевич, Кучевский Кирилл Андреевич, Амплеев Евгений Михайлович, Мишуков Александр Витальевич, Тараскин Дмитрий Александрович, Измайлов Максим Андреевич","Тимошенко Леонид Геннадьевич"
"SFSTRY0020970","S4->S5 Загрузка задублированных договоров ч2","2","Complete","Completed","Феникс","Тимошенко Леонид Геннадьевич, Коршикова Анастасия Олеговна, Беркова Анна Николаевна, Блинов Сергей Николаевич, Кучевский Кирилл Андреевич, Амплеев Евгений Михайлович, Мишуков Александр Витальевич, Тараскин Дмитрий Александрович, Измайлов Максим Андреевич","Блинов Сергей Николаевич"
"SFSTRY0021453","Тестирование. Фиксация транспортных ошибок в обмене с РСА 2.0","2","Testing","","Феникс","","Мишуков Александр Витальевич"
"SFSTRY0020127","Устранение ошибки - Статус БСО не позволяет заключить договор (код 12003011)","2","Testing","","Феникс","Беркова Анна Николаевна, Пушкин Антон Сергеевич, Горьков Сергей Петрович","Мишуков Александр Витальевич"
"SFSTRY0022066","Консультация по передаче дел перед увольнением","2","Work in progress","","Феникс","","Тимошенко Леонид Геннадьевич"
