"number","short_description","story_points","state","u_close_code","assignment_group","additional_assignee_list","assigned_to"
"SFSTRY0022901","Доработать в АИС вкладку ""Документы"" формы договора, а так же доработать форму запроса КБМ по субъектам в части заполнения страны выдачи документа ВУ","5","Work in progress","","Феникс","Пушкин Антон Сергеевич, Измайлов Максим Андреевич","Блинов Сергей Николаевич"
"SFSTRY0022703","Произвести до загрузку договоров с ошибкой ""Статус БСО не позволяет заключить договор (12003011)""","5","Work in progress","","Феникс","Измайлов Максим Андреевич, Горьков Сергей Петрович","Мишуков Александр Витальевич"
"SFSTRY0022902","Доработать запрос ОСАГО с учетом изменения алгоритма определения страны регистрации по ВУ","5","Work in progress","","Феникс","Пушкин Антон Сергеевич, Измайлов Максим Андреевич","Тимошенко Леонид Геннадьевич"
"SFSTRY0022690","СПАЙК: Провести диагностирование  ошибки - В системе уже присутствует договор или доп. соглашение с идентификатором и номером версии договора 0 для данной СК ","3","Draft","","Феникс","","Горьков Сергей Петрович"
"SFSTRY0023207","Реализовать новый контроль, позволяющий блокировать привязку БСО к другому договору без аннулирования предыдущего договора (код 12003011)","3","Testing","","Феникс","Пушкин Антон Сергеевич, Горьков Сергей Петрович","Мишуков Александр Витальевич"
"SFSTRY0023248","Участие в обработке запросов ЦБ","2","Draft","","Феникс","","Измайлов Максим Андреевич"
