"number","short_description","story_points","state","u_close_code","assignment_group","additional_assignee_list","assigned_to"
"SFSTRY0007976","[PI 7.4] SSO : Замена логирования на новую библиотеку для ELK [Б]","1","Черновик","","Байкал","","Шувалов Борис Викторович"
"SFSTRY0007980","[PI 7.4] Обратная связь на Сайте : Уведомление клиента о закрытии обращения [ФНN]","2","Черновик","","Байкал","Орлова Наталья Валерьевна, Киклевич Андрей Олегович","Пушина Наталья Сергеевна"
"SFSTRY0008941","Предоставить ДАИЗИ исходники кода для формы КБМ нового ЛК","0","Черновик","","Байкал","","Морозов Роман Александрович"
"SFSTRY0008008","[PI 7.4] Метод списка наименований НАЭБ и офисов [КN]","2","В работе","","Байкал","Никитина Алла Гургеновна","Григорьев Константин Владимирович"
"SFSTRY0008940","SSO: Разработка компонента аутентифкации на Angular 6","1","В работе","","Байкал","","Шувалов Борис Викторович"
"SFSTRY0006566","[PI 7.4] Рефакторинг : AIS.Claim.SaveResultRSAForeignPolicy [К]","2","Черновик","","Байкал","","Григорьев Константин Владимирович"
"SFSTRY0008964","Feature Toggles: технический долг CHG0054001","0","В работе","","Байкал","","Орлова Наталья Валерьевна"
"SFSTRY0007822","[PI 7.3] Страница постоплаты : Передавать данные по договору на WA [БРНN]","4","В работе","","Байкал","Шувалов Борис Викторович, Никитина Алла Гургеновна, Пушина Наталья Сергеевна","Орлова Наталья Валерьевна"
"SFSTRY0007190","[PI 7.4] Онлайн заявки КБМ : Гиперссылки на изменение полиса ОСАГО на форме заявки КБМ в ЛК [ФРНN]","3","Готово для тестирования","","Байкал","Морозов Роман Александрович, Фёклин Александр Александрович, Киклевич Андрей Олегович","Орлова Наталья Валерьевна"
"SFSTRY0004963","[PI 7.4] Заявление КАСКО из МП :  Принимать в АИС ручной ввод СТОА + сохранять в примечание СЧК [КА]","1","Черновик","","Байкал","Киклевич Андрей Олегович","Григорьев Константин Владимирович"
"SFSTRY0007837","[PI 7.4] Фиксация / получение кода из РСА при авторизации через ГосУслуги [НБ]","1","Черновик","","Байкал","Орлова Наталья Валерьевна","Шувалов Борис Викторович"
"SFSTRY0008750","Вход по пин-коду в локальном провайдере","1","В работе","","Байкал","","Шувалов Борис Викторович"
"SFSTRY0006564","[PI 7.3] ЛК : Приёмка UI страховых событий по автострахованию [ФА]","3","В работе","","Байкал","Фёклин Александр Александрович","Киклевич Андрей Олегович"
"SFSTRY0007838","[PI 7.4] Разработка проектного решения по развитию платежного сервиса : Консультация архитекторов [НБ]","1","Черновик","","Байкал","Орлова Наталья Валерьевна","Шувалов Борис Викторович"
"SFSTRY0007821","[PI 7.3] Заявление ОСАГО из МП : Метод списка ЛДУ с проверкой возможности заявления убытка на дату [КN]","2","Тестирование","","Байкал","Никитина Алла Гургеновна","Григорьев Константин Владимирович"
"SFSTRY0008764","В методе привязки карты реализовать возможность привязки к застрахованному по ДМС с франшизой","2","Готово для тестирования","","Байкал","Фёклин Александр Александрович, Орлова Наталья Валерьевна","Морозов Роман Александрович"
"SFSTRY0007975","[PI 7.4] Спайк : Рекуррентная оплата счета на франшизу по ДМС [НФ]","2","В работе","","Байкал","Фёклин Александр Александрович","Орлова Наталья Валерьевна"
"SFSTRY0007985","[PI 7.4] Обратная связь на Сайте : Выбор оценки на форме и фиксация в АИС [ФРНN]","5","Черновик","","Байкал","Морозов Роман Александрович, Орлова Наталья Валерьевна, Киклевич Андрей Олегович","Пушина Наталья Сергеевна"
