"number","short_description","story_points","state","u_close_code","assignment_group","additional_assignee_list","assigned_to"
"SFSTRY0010198","Убытки МП / Ограниченный комплект документов","2","Готово для тестирования","","Байкал","Никитина Алла Гургеновна","Григорьев Константин Владимирович"
"SFSTRY0010199","Убытки МП / Назначение куратора","2","Готово для тестирования","","Байкал","Никитина Алла Гургеновна","Григорьев Константин Владимирович"
"SFSTRY0009391","[PI 8.2] SSO : Интеграция доработок новой авторизации в исходный код ЛК","1","Черновик","","Байкал","","Шувалов Борис Викторович"
"SFSTRY0010314","component 'GETREGRESSINFOXML' must be declared","0","В работе","","Байкал","","Орлова Наталья Валерьевна"
"SFSTRY0009476","[PI 8.1] Метод USER.GETCLAIMLIST3 : недочет определения статуса стадии ""Принятие решения"" для КАСКО, ОСАГО [КФ]","1","Завершено","Готово к релизу","Байкал","Ильдинбаев Бахтияр Казамханович, Морозов Роман Александрович, Пушина Наталья Сергеевна, Шувалов Борис Викторович, Никитина Алла Гургеновна, Киклевич Андрей Олегович, Фёклин Александр Александрович, Григорьев Константин Владимирович, Орлова Наталья Валерьевна, Кайнов Илья Михайлович, Амплеев Евгений Михайлович","Григорьев Константин Владимирович"
"SFSTRY0009477","[PI 8.1] Метод USER.GETCLAIMLIST3 : подгруппы входящих док-тов для ОСАГО д/б как для КАСКО [КФ]","0","Завершено","Готово к релизу","Байкал","Ильдинбаев Бахтияр Казамханович, Морозов Роман Александрович, Пушина Наталья Сергеевна, Шувалов Борис Викторович, Никитина Алла Гургеновна, Киклевич Андрей Олегович, Фёклин Александр Александрович, Григорьев Константин Владимирович, Орлова Наталья Валерьевна, Кайнов Илья Михайлович, Амплеев Евгений Михайлович","Григорьев Константин Владимирович"
"SFSTRY0010273","[PI 8.2] ДМС франшиза: Вывод пользов. контента в методе API подробн. инфо о полисе (НБФ)","2","В работе","","Байкал","Фёклин Александр Александрович, Шувалов Борис Викторович, Киклевич Андрей Олегович","Орлова Наталья Валерьевна"
"SFSTRY0010197","Убытки МП / Не отображается строка с ролью «Виновник». Позитивный сценарий.","3","Готово для тестирования","","Байкал","Киклевич Андрей Олегович, Пушина Наталья Сергеевна","Григорьев Константин Владимирович"
"SFSTRY0010221","[PI 8.2] Приемка разработанного UI ЛК по привязке карты к полису ДМС с франшизой","2","В работе","","Байкал","Шувалов Борис Викторович","Фёклин Александр Александрович"
"SFSTRY0010306","[ЛК] Обновление дистрибутива ЛК","1","Готово для тестирования","","Байкал","","Шувалов Борис Викторович"
"SFSTRY0010299","Подключение новых серверов REDIS для хранения сессии на сайте ingos.ru","1","Завершено","","Байкал","","Шувалов Борис Викторович"
"SFSTRY0010318","Спайк : Список счетов ЗХ по франшизе ДМС в ЛК [1/2 SP]","0","Черновик","","Байкал","Фёклин Александр Александрович, Шувалов Борис Викторович","Орлова Наталья Валерьевна"
"SFSTRY0010315","Из МП при оплате сумма транзакции не соотвествует сумме премии по договорам.","0","В работе","","Байкал","","Орлова Наталья Валерьевна"
"SFSTRY0010262","[PI 8.2] РСА 2.0: Аннулирование убытка (спайк) (П)","1","В работе","","Байкал","","Пушина Наталья Сергеевна"
"SFSTRY0008796","[PI 8.2] SSO : Форма аутентификации reCAPTCHA V3","1","В работе","","Байкал","","Шувалов Борис Викторович"
"SFSTRY0009040","[PI 8.1] Франшиза по ДМС : Автосписание средств с карты, привязанной к полису ЗХ, по выставленному счету ЗХ","3","В работе","","Байкал","Никитина Алла Гургеновна, Фёклин Александр Александрович","Орлова Наталья Валерьевна"
"SFSTRY0009390","[PI 8.2] SSO : Конечная точка получения маркеров доступа на стороне front-end","1","Завершено","","Байкал","","Шувалов Борис Викторович"
"SFSTRY0009455","[PI 8.1] Спайк : Сохранение данных РСА при заявлении убытка ОСАГО из МП [ПК] 1/2 SP","1","В работе","","Байкал","","Пушина Наталья Сергеевна"
