"number","short_description","story_points","state","u_close_code","assignment_group","additional_assignee_list","assigned_to"
"SFSTRY0013649","[ФКА][PI 10] Онлайн убытки КАСКО/ОСАГО : в USER.GETCLAIMLIST3 модифицировать критерии отбора финального документа, подготовленного страховщиком","3","Work in progress","","Байкал","Фёклин Александр Александрович, Киклевич Андрей Олегович","Григорьев Константин Владимирович"
"SFSTRY0010423","[ФБN][PI 10] Автоплатежи в ЛК : в методе API по КАСКО доработать критерии вывода блока привязки банковской карты к оплате взносов","3","Work in progress","","Байкал","Фёклин Александр Александрович, Никитина Алла Гургеновна","Шувалов Борис Викторович"
"SFSTRY0014489","[ФИБ]Спайк Отладка существующих методов ЛК для продукта ""Авантаж"" ","2","Draft","","Байкал","Шувалов Борис Викторович, Пушкарь Илья Андреевич","Фёклин Александр Александрович"
"SFSTRY0014155","[PI 10] Определение куратора убытка КАСКО [ИКА]","2","Draft","","Байкал","Пушкарь Илья Андреевич, Киклевич Андрей Олегович","Григорьев Константин Владимирович"
"SFSTRY0013607","[ОN][PI 10] Франшиза по ДМС : Интеграция ais.WSMEDMOBILE.ExistsFranchise(pObjIsn => :pObjIsn) в методы АИС","2","Testing","","Байкал","Никитина Алла Гургеновна","Орлова Наталья Валерьевна"
"SFSTRY0011055","[ОN][PI 10] Франшиза по ДМС : при замене привязанной карты удалять атрибут ЗХ с предыдущим binding ID","2","Ready for testing","","Байкал","Никитина Алла Гургеновна","Орлова Наталья Валерьевна"
"SFSTRY0014181","[PI 10] Определение куратора убытка ИФЛ [ИОА]","2","Work in progress","","Байкал","Пушкарь Илья Андреевич, Киклевич Андрей Олегович","Орлова Наталья Валерьевна"
"SFSTRY0013808","[ФОА][PI 10] Подробная инфо о полисе ""Жизнь и НС"" в ЛК : в поле ""Стоимость полиса"" некорректно выводится валюта","1","Draft","","Байкал","Фёклин Александр Александрович, Киклевич Андрей Олегович","Орлова Наталья Валерьевна"
"SFSTRY0014175","[PI 10] Выкладка на бой CHG0048970 - Статусы убытков ИФЛ [К]","1","Draft","","Байкал","","Григорьев Константин Владимирович"
"SFSTRY0010870","[АКФ] [PI 10] Онлайн убытки ОСАГО : потерпевшему не выводится убыток ОСАГО, заявленный из МП, если ТС застраховано по КАСКО","1","Testing","","Байкал","Григорьев Константин Владимирович, Фёклин Александр Александрович","Киклевич Андрей Олегович"
"SFSTRY0014508","[Б][Платежный шлюз] Добавить в ответ метода API ПШ ""Статус оплаты по связке"" расширенный ответ статуса оплаты от Сбербанк","1","Complete","Completed","Байкал","Ильдинбаев Бахтияр Казамханович, Шувалов Борис Викторович, Никитина Алла Гургеновна, Киклевич Андрей Олегович, Фёклин Александр Александрович, Григорьев Константин Владимирович, Орлова Наталья Валерьевна, Пушкарь Илья Андреевич, Кайнов Илья Михайлович, Амплеев Евгений Михайлович","Шувалов Борис Викторович"
"SFSTRY0014824","У должника не отбирается дело на сайте ИГС - не может удаленно оплатить дебиторскую задолженность","1","Work in progress","","Байкал","","Орлова Наталья Валерьевна"
"SFSTRY0014615","Взаимодействия внутри команды в рамках итерации PI 10.1 по методологии SAFe","0","Work in progress","","Байкал","Григорьев Константин Владимирович, Киклевич Андрей Олегович, Никитина Алла Гургеновна, Орлова Наталья Валерьевна, Пушкарь Илья Андреевич, Фёклин Александр Александрович, Шувалов Борис Викторович","Амплеев Евгений Михайлович"
