"number","short_description","story_points","state","u_close_code","assignment_group","additional_assignee_list","assigned_to"
"SFSTRY0005237","SSO : Привести документацию к актуальному виду","3","Завершено","Выполнено","Байкал","","Агибалов Станислав Александрович"
"SFSTRY0004508","Тест-дизайн + тестирование локального провайдера","2","Завершено","Выполнено","Байкал","","Павлухина Татьяна Равильевна"
"SFSTRY0006106","Формирование требований к облегченной версии метода USER.GETUSERINFO","1","Завершено","Выполнено","Байкал","Шувалов Борис Викторович","Морозов Роман Александрович"
"SFSTRY0006929","МП. Заявление убытка КАСКО - устранить задваивание рисков + добавить подсказки (Спайк) [K]","1","Завершено","Выполнено","Байкал","","Григорьев Константин Владимирович"
"SFSTRY0006313","[PI 6.1] ЛК Полисы : Вывод графика платежей на странице подробной инфо о полисе [ФР]","4","Завершено","Выполнено","Байкал","Морозов Роман Александрович","Фёклин Александр Александрович"
"SFSTRY0006388","[PI 6.1] SSO : Тестирование на Beta [ТА]","2","Завершено","Отложено","Байкал","Никитина Алла Гургеновна","Павлухина Татьяна Равильевна"
"SFSTRY0006564","[PI 7.3] ЛК : Приёмка UI страховых событий кроме ДМС [ФА]","5","Черновик","","Байкал","Фёклин Александр Александрович","Киклевич Андрей Олегович"
"SFSTRY0004866","ЛК ДМС- ЗАПИСЬ В КЛИНИКУ CHG0051121","6","Завершено","Выполнено","Байкал","Фёклин Александр Александрович","Морозов Роман Александрович"
"SFSTRY0007666","[PI 7.2] Спайк : Требования к странице постоплаты с кросс-продуктами [ПБ]","1","В работе","","Байкал","Шувалов Борис Викторович","Пушина Наталья Сергеевна"
"SFSTRY0007827","[PI 7.3] reCAPTCHA v.3 : Доработка popup логина для работы с капчей v3 + v2 [РБ]","1","Черновик","","Байкал","","Морозов Роман Александрович"
"SFSTRY0006283","[PI 6.1] ЛК-коммуникации: Детальная информация по заявкам [РПА] CHG0054730","1","Завершено","Выполнено","Байкал","Морозов Роман Александрович, Пушина Наталья Сергеевна","Киклевич Андрей Олегович"
"SFSTRY0003663","ЛК- аддендумы Е-ОСАГО Изменение периода исп-я ТС","2","Завершено","","Байкал","Павлухина Татьяна Равильевна, Пушина Наталья Сергеевна","Павлухина Татьяна Равильевна"
"SFSTRY0005387","Письмо от Трубиной","1","Завершено","Выполнено","Байкал","","Орлова Наталья Валерьевна"
"SFSTRY0007393","ПЛ. Доработка метода webapi подробной инфо о пользователе - воз-ть рег-ции в ПЛ","0","Завершено","Отменено","Байкал","",""
"SFSTRY0006286","[PI 6.1] ЛК-ПЛ. Страница пост оплаты: Отображение начисленных баллов только по операциям связанными с покупкой полиса [НПТ] CHG0053216","1","Завершено","Выполнено","Байкал","Павлухина Татьяна Равильевна, Орлова Наталья Валерьевна","Пушина Наталья Сергеевна"
"SFSTRY0004992","Оплата взносов в ЛК по договорам ИГС-Ж (S4) (ПБ) (Делает Б)","3","Завершено","Выполнено","Байкал","Фёклин Александр Александрович","Шувалов Борис Викторович"
"SFSTRY0004856","ЛК ПЛ. Реализовать логику рубильника на АИС","5","Завершено","Выполнено","Байкал","Павлухина Татьяна Равильевна, Пушина Наталья Сергеевна","Орлова Наталья Валерьевна"
"SFSTRY0007061","Исследовать существующий метод на возможность использования для получения данных о полисе ОСАГО","1","Завершено","Выполнено","Байкал","Фёклин Александр Александрович","Григорьев Константин Владимирович"
"SFSTRY0002796","ЛК привязка/перепривязка со списанием 1 рубля  + доработки шлюза","8","Завершено","","Байкал","Орлова Наталья Валерьевна, Пушина Наталья Сергеевна, Шувалов Борис Викторович",""
"SFSTRY0007976","[PI 7.4] SSO : Замена логирования на новую библиотеку для ELK [Б]","1","Черновик","","Байкал","","Шувалов Борис Викторович"
"SFSTRY0002571","Возможность заявлять убыток из МП только по МСК и МО","3","Завершено","","Байкал","Павлухина Татьяна Равильевна","Григорьев Константин Владимирович"
"SFSTRY0005410","[?] Вход в ЛК. Бесконечный прелоадер. ","","Черновик","","Байкал","","Шувалов Борис Викторович"
"SFSTRY0006278","[PI 6.1] ЛК-автоплатежи : Сценарии UI (ТЗ+ТК) привязки/перепривязки карты к договору [ПТ]","1","Завершено","Выполнено","Байкал","Павлухина Татьяна Равильевна","Пушина Наталья Сергеевна"
"SFSTRY0003387","[INC] DFCT0332408 Невозможно отобрать договор на странице webrelease01.ingos.ru/services/pay","","Завершено","","Байкал","","Орлова Наталья Валерьевна"
"SFSTRY0004360","CHG0049921 Cкорректировать ошибки вызова AGROBJRISKLIST","","Завершено","","Байкал","","Григорьев Константин Владимирович"
"SFSTRY0004875","Доработка срочная для тру инжиниринг","5","Завершено","Выполнено","Байкал","Павлухина Татьяна Равильевна","Орлова Наталья Валерьевна"
"SFSTRY0007773","[PI 7.2] ТЗ для Агимы : Страховые случаи по полису [П]","1","Завершено","","Байкал","","Пушина Наталья Сергеевна"
"SFSTRY0007177","PI6. SSO. Доработка авторизации страницы Swagger в режиме SSO","1","Завершено","Отложено","Байкал","","Шувалов Борис Викторович"
"SFSTRY0006818","[NP] Обновить ссылку для ссылок о продлении","1","Завершено","Выполнено","Байкал","","Шувалов Борис Викторович"
"SFSTRY0003718","[ING]Получение детальной информацию по ген. договору","","Завершено","","Байкал","","Орлова Наталья Валерьевна"
"SFSTRY0006157","[PI5.5] PI6. Spike. Метод пейдж автерпейинг. П","1","Завершено","Дубликат","Байкал","","Пушина Наталья Сергеевна"
"SFSTRY0007379","[спайк] Возможность заводить убытки в АИС с датой-временем страхового случая указанном в таймзоне регионов расположенных восточнее Москвы. CHG0054161","1","Черновик","","Байкал","","Григорьев Константин Владимирович"
"SFSTRY0003580","Отображение подробной инфо о полисе «Забота о главном»","","Завершено","","Байкал","","Морозов Роман Александрович"
"SFSTRY0005425","Онлайн ДМС : Ошибка в методе MOBILE.MEDLK.MedGetAgrList [Ф]","1","Черновик","","Байкал","","Фёклин Александр Александрович"
"SFSTRY0007312","ИНЦ. не удается привязать онлайн оплату по договору PI0050973","1","Завершено","Выполнено","Байкал","","Орлова Наталья Валерьевна"
"SFSTRY0004487","ЛК Ипотека: Маршрутизация задач по онлайн заявкам","2","Завершено","","Байкал","","Фёклин Александр Александрович"
"SFSTRY0003347","[INC] CHG0048002 Минимизация последствий ошибок работы с сервисом коротких ссылок.","","Завершено","","Байкал","","Орлова Наталья Валерьевна"
"SFSTRY0004323","Чеклист где все сценарии отмечены как успешно пройденные SSO","8","Завершено","","Байкал","Агибалов Станислав Александрович","Павлухина Татьяна Равильевна"
"SFSTRY0004864","(UP)ЛК отчеты по заявкам (S3)(S4)","0","Завершено","Выполнено","Байкал","Пушина Наталья Сергеевна, Павлухина Татьяна Равильевна","Орлова Наталья Валерьевна"
"SFSTRY0003725","Заявление убытка из МП (выбор СТОА) КАСКО","1","Завершено","","Байкал","Григорьев Константин Владимирович, Павлухина Татьяна Равильевна",""
"SFSTRY0005238","ПЛ. Тексты сообщений. + Страница постоплаты ","2","Завершено","Выполнено","Байкал","","Павлухина Татьяна Равильевна"
"SFSTRY0006384","[PI 6.1] Тех.долг : Выкладка доработок по рефакторингу [К]","1","Завершено","Выполнено","Байкал","","Григорьев Константин Владимирович"
"SFSTRY0004989","ИГС-Ж : Отображение полисов в ЛК не корп. (S4) (РА)","0","Завершено","Отменено","Байкал","","Морозов Роман Александрович"
"SFSTRY0007817","[PI 7.2] Ingo UI : Уведомления о блокировке AJAX запросов WAF для Angular 6 [Р]","2","В работе","","Байкал","","Морозов Роман Александрович"
"SFSTRY0006798","[PI 6.3] ИГС-Ж, МП - определение мерчанта: Новый метод по определению мерчанта [Н] CHG0054403","1","Завершено","Выполнено","Байкал","Шувалов Борис Викторович, Пушина Наталья Сергеевна, Павлухина Татьяна Равильевна, Никитина Алла Гургеновна, Фёклин Александр Александрович","Орлова Наталья Валерьевна"
"SFSTRY0008531","[ЛК/МП - ПЛ] Доработка подсказок для достижения следующего уровня ","1","Черновик","","Байкал","","Орлова Наталья Валерьевна"
"SFSTRY0004966","Продление архивного договора ОСАГО (S3) (Делает Р Ф) (MVP)","2","Завершено","Выполнено","Байкал","Фёклин Александр Александрович, Морозов Роман Александрович","Пушина Наталья Сергеевна"
"SFSTRY0006803","[PI 6.3] ЛК. ДМС - автоплатежи :  Отключение автоплатежа по франшизе в полисе ДМС [ФБНА] CHG0054554","3","Завершено","Выполнено","Байкал","Шувалов Борис Викторович, Орлова Наталья Валерьевна, Киклевич Андрей Олегович","Фёклин Александр Александрович"
"SFSTRY0004317","ЛК Ипотека, Тестирование функциональности онлайн заявок","3","Завершено","","Байкал","Орлова Наталья Валерьевна","Фёклин Александр Александрович"
"SFSTRY0005012","[PI5.5] (UP)Корректные данные для страницы пост оплаты (S4) (НТ)","0","Завершено","","Байкал","Павлухина Татьяна Равильевна","Орлова Наталья Валерьевна"
"SFSTRY0006193","[PI 6.2] Рефакторинг : Заменить метод USER.GETUSERINFO новым оптимизированным методом в методах API [РТ]","3","Завершено","Выполнено","Байкал","Павлухина Татьяна Равильевна","Морозов Роман Александрович"
"SFSTRY0002596","Тестирование и выбор из двух решений по опросам","8","Завершено","","Байкал","Агибалов Станислав Александрович",""
"SFSTRY0002813","CHG0047996 Заявление убытка КАСКО с учётом класса рисков","3","Завершено","","Байкал","Павлухина Татьяна Равильевна","Григорьев Константин Владимирович"
"SFSTRY0006864","[PI 6.4] ЛК-ПЛ : Доработки раздела UI по рекомендациям UXL+док","1","Завершено","Отменено","Байкал","",""
"SFSTRY0007783","[PI 7.3] Метод заявления убытка по ОСАГО из IngoMobile, часть 2 (тестирование) [КN]","2","Черновик","","Байкал","","Никитина Алла Гургеновна"
"SFSTRY0007822","[PI 7.3] Страница постоплаты : Передавать данные по договору на WA [БРНN]","3","Черновик","","Байкал","",""
"SFSTRY0007758","[PI 7.1] ЛК : Тестовые данные для формы детальной инфо по заявкам [А]","1","Завершено","Выполнено","Байкал","","Киклевич Андрей Олегович"
"SFSTRY0005613","{Next PI} ЛК ДМС : Рассылки перед истечением срока действия карт, привязанных к застрахованным по ДМС","","Черновик","","Байкал","",""
"SFSTRY0004870","ЛК Новый вход, выход(делаем сами) (S2)(S3)","0","Завершено","Выполнено","Байкал","Морозов Роман Александрович, Павлухина Татьяна Равильевна","Агибалов Станислав Александрович"
"SFSTRY0004318","Отмена платежа, отладка сценариев ошибок. ","1","Завершено","Выполнено","Байкал","","Орлова Наталья Валерьевна"
"SFSTRY0003985","SSO - логирование/доработки. ","","Завершено","","Байкал","Шувалов Борис Викторович, Агибалов Станислав Александрович","Шувалов Борис Викторович"
"SFSTRY0006154","[PI5.5] PI6. Spike. ЛК-автоплатежи закинуть в агиму","1","Завершено","Дубликат","Байкал","","Пушина Наталья Сергеевна"
"SFSTRY0005244","Ретро. Определиться с DOR ","1","Завершено","Выполнено","Байкал","Агибалов Станислав Александрович, Григорьев Константин Владимирович, Орлова Наталья Валерьевна, Киклевич Андрей Олегович, Павлухина Татьяна Равильевна, Пушина Наталья Сергеевна, Фёклин Александр Александрович, Морозов Роман Александрович, Шувалов Борис Викторович","Амплеев Евгений Михайлович"
"SFSTRY0002604","Дефекты Инциденты 4.1","8","Завершено","","Байкал","Фёклин Александр Александрович, Орлова Наталья Валерьевна, Шувалов Борис Викторович, Морозов Роман Александрович",""
"SFSTRY0006402","[PI 6.2] Сайт-офисы : Доработка фидов выгрузки по офисам для Яндекс и Google maps [К]","0","Завершено","Дубликат","Байкал","","Григорьев Константин Владимирович"
"SFSTRY0003320","Механизм выстав. отчетов по регресу. Субрагация","5","Завершено","","Байкал","Орлова Наталья Валерьевна, Павлухина Татьяна Равильевна",""
"SFSTRY0007747","[PI 7.1] SSO : Вынос параметров авторизации в общий раздел конфигурации [Б]","1","Завершено","Выполнено","Байкал","","Шувалов Борис Викторович"
"SFSTRY0004881","[?] Проблема с оплатами (в некоторых контекстах возможна двойная оплата одного полиса)","","Черновик","","Байкал","","Павлухина Татьяна Равильевна"
"SFSTRY0007838","[PI 7.4] Разработка проектного решения по развитию платежного сервиса : Консультация архитекторов [НБ]","1","Черновик","","Байкал","",""
"SFSTRY0002587","ЛК ДМС статус урегулирования ","1","Завершено","","Байкал","Фёклин Александр Александрович, Пушина Наталья Сергеевна",""
"SFSTRY0006857","[PI 6.4] FAQ : Разработка модуля - Демонстратор контента [С]","3","Черновик","","Байкал","","Агибалов Станислав Александрович"
"SFSTRY0005096","Суммы при проведении виртуальной оплаты разъехались","2","Завершено","Выполнено","Байкал","",""
"SFSTRY0006902","Спайк : Заявление убытков ОСАГО, планирование АИС части реализации","1","Завершено","Выполнено","Байкал","Фёклин Александр Александрович","Григорьев Константин Владимирович"
"SFSTRY0005474","Ретро. Выбор эталонной задачи. ","1","Завершено","Выполнено","Байкал","",""
"SFSTRY0005575","письмо от Влада Крылова","0","Завершено","Отменено","Байкал","",""
"SFSTRY0007534","ИГСЖ Мерчанты (остаток с 3 спринта)","1","Завершено","Дубликат","Байкал","","Орлова Наталья Валерьевна"
"SFSTRY0004370","Инцидент. SCTASK0199331  по счету 722-21720-1120000/17 25.05.17 стоит условная оплата - почему?","","Завершено","Выполнено","Байкал","","Орлова Наталья Валерьевна"
"SFSTRY0005539","ЛК Убытки. Отображение документов","3","Завершено","Выполнено","Байкал","Пушина Наталья Сергеевна","Григорьев Константин Владимирович"
"SFSTRY0004871","Тестиирование IE 11 всех сценариев + Local + госуслуги + blitz (S2) (S3) (Делает Т)","2","Завершено","Выполнено","Байкал","Агибалов Станислав Александрович","Павлухина Татьяна Равильевна"
"SFSTRY0004975","Запросы-заявки по номеру полиса(S3) (Делает А)","1","Завершено","Выполнено","Байкал","","Киклевич Андрей Олегович"
"SFSTRY0006799","[PI 6.3] Сайт убытки : Дополнение списка СТОА по ОСАГО stoa.xls [НИ]","2","Завершено","Выполнено","Байкал","Васильков Илья Александрович","Орлова Наталья Валерьевна"
"SFSTRY0004496","Подсказка к врачу-куратору","3","Завершено","Выполнено","Байкал","Павлухина Татьяна Равильевна","Морозов Роман Александрович"
"SFSTRY0006859","[PI 6.4] FAQ : SEO","2","Черновик","","Байкал","",""
"SFSTRY0007190","[PI 7.4] Онлайн заявки КБМ : Гиперссылки на изменение полиса ОСАГО на форме заявки КБМ в ЛК [ФРНN]","3","Черновик","","Байкал","",""
"SFSTRY0005424","Англ версия новостей","2","Завершено","Выполнено","Байкал","","Шувалов Борис Викторович"
"SFSTRY0007054","[PI 7.2] {БАГ} МП Убытки : Ошибка при вызове метода GETCLAIMLIST3 по ИФЛ [КА]","1","Черновик","","Байкал","Киклевич Андрей Олегович","Григорьев Константин Владимирович"
"SFSTRY0004506","Оценить сколько времени займет переделка на Angular","0","Завершено","Отменено","Байкал","","Агибалов Станислав Александрович"
"SFSTRY0005394","CHG0051048 доработка вывода сообщения об ошибках АИС в WebAPI сайта","1","Завершено","Выполнено","Байкал","","Шувалов Борис Викторович"
"SFSTRY0006102","Исследование работы капчи на форме входа в ЛК тестового сайта","1","Завершено","Выполнено","Байкал","","Шувалов Борис Викторович"
"SFSTRY0004855","ИГС-Ж : Отображение полисов корп. НС (проверка)(S2)","3","Завершено","Выполнено","Байкал","Киклевич Андрей Олегович","Фёклин Александр Александрович"
"SFSTRY0007772","[PI 7.2] ТЗ для Агимы : Запросы по номеру полиса [Ф]","1","Завершено","Выполнено","Байкал","","Фёклин Александр Александрович"
"SFSTRY0004973","ЛК настройка способов отправки уведомлений в профиле (НПТ)","0","Завершено","Дубликат","Байкал","Павлухина Татьяна Равильевна, Пушина Наталья Сергеевна","Орлова Наталья Валерьевна"
"SFSTRY0006852","DFCT0425580 Обрезание последней буквы имени","0","Завершено","Дубликат","Байкал","","Орлова Наталья Валерьевна"
"SFSTRY0003661","Вкладыш ВЗР в полисе ДМС- выводить отдельной карточкой (Пульман)","8","Завершено","","Байкал","",""
"SFSTRY0004888","Восстановление работы методов API личного кабинета на тестовых средах","2","Завершено","","Байкал","","Морозов Роман Александрович"
"SFSTRY0008325","Спайк : Доработка коммуникаций онлайн-чата [Р]","1","В работе","","Байкал","","Морозов Роман Александрович"
"SFSTRY0007978","[PI 7.4] SSO : Разработка базовых Unit-тестов [Б]","1","Черновик","","Байкал","","Шувалов Борис Викторович"
"SFSTRY0008326","Обновление текста для виджета регистрации ПЛ в ЛК [Р]","0","Завершено","Готово к релизу","Байкал","","Морозов Роман Александрович"
"SFSTRY0006507","[PI 7.3] Онлайн заявки КБМ : Переработка маршрутизации задачи АИС по заявке КБМ [ФНN]","4","Черновик","","Байкал","","Фёклин Александр Александрович"
"SFSTRY0006901","Спайк : Доработки заявления убытка ИФЛ","0","Завершено","Выполнено","Байкал","Фёклин Александр Александрович","Григорьев Константин Владимирович"
"SFSTRY0002589","Отключение на платёжной странице заполнение e-mail","2","Завершено","","Байкал","Шувалов Борис Викторович",""
"SFSTRY0003468","[INC] INC0157767  расхождение сумм КВ","","Завершено","","Байкал","","Орлова Наталья Валерьевна"
"SFSTRY0007179","PI6. SSO. Спайк.  Изучение работы нового механизма авторизации через SSO","1","Завершено","Выполнено","Байкал","","Шувалов Борис Викторович"
"SFSTRY0006572","[PI 6.2] Разработать сервис возврата уведомлений о блокировке WAF запроса/ответа через AJAX для AngularJS [Б]","2","Завершено","Выполнено","Байкал","","Шувалов Борис Викторович"
"SFSTRY0006150","[PI5.5] PI6. Spike. Детальная информация по заявкам","1","Завершено","Дубликат","Байкал","","Пушина Наталья Сергеевна"
"SFSTRY0004995","Страница оплаты ИГС-Ж lifeingos.ru БЭК (спайк) (S4) (БП) (Делает Б)","1","Завершено","Выполнено","Байкал","Пушина Наталья Сергеевна","Шувалов Борис Викторович"
"SFSTRY0003470","[INC] Корректировка подсказок по опциям в полисах","","Завершено","","Байкал","Павлухина Татьяна Равильевна","Павлухина Татьяна Равильевна"
"SFSTRY0004872","Feature's toggles через БД, + админка (изменилась формулировка: Проектирование механизма функциональных переключателей (Feature Toggles) ","4","Завершено","Выполнено","Байкал","","Шувалов Борис Викторович"
"SFSTRY0006858","[PI 6.4] FAQ : Интеграция с БД","2","Черновик","","Байкал","",""
"SFSTRY0007821","[PI 7.3] Заявление ОСАГО из МП : Метод списка ЛДУ с проверкой возможности заявления убытка на дату [КN]","3","Черновик","","Байкал","","Григорьев Константин Владимирович"
"SFSTRY0007366","Исследование существующего функционала на наличие кросс продуктов","1","Завершено","Выполнено","Байкал","","Павлухина Татьяна Равильевна"
"SFSTRY0007135","Спайк : актуализировать ограничения по онлайн загрузке файлов в КД убытка / претензии","1","Черновик","","Байкал","",""
"SFSTRY0005846","[PI5.5] (UP)Отображение успешной онлайн оплаты регресса в АИС","0","Завершено","Дубликат","Байкал","Павлухина Татьяна Равильевна, Пушина Наталья Сергеевна","Орлова Наталья Валерьевна"
"SFSTRY0004509","[PI5.5] (UP)Доработка продления ОСАГО для ЛК и МП(S1)(S2)(S3)(S4) (НПТ)","0","Завершено","Дубликат","Байкал","Фёклин Александр Александрович, Пушина Наталья Сергеевна","Орлова Наталья Валерьевна"
"SFSTRY0004497","Регистрация ЛК (доработки по фиксации ошибок)(S1)(S2)(S3) .. ","","Завершено","Выполнено","Байкал","Пушина Наталья Сергеевна, Павлухина Татьяна Равильевна","Орлова Наталья Валерьевна"
"SFSTRY0006397","[PI 6.2] МП Убытки : Статус урегулирования ИФЛ [Ф]","1","Завершено","Отменено","Байкал","Григорьев Константин Владимирович","Фёклин Александр Александрович"
"SFSTRY0003792","[INC]  Ошибка при оформлении аддендума в ЛК.","","Завершено","","Байкал","","Морозов Роман Александрович"
"SFSTRY0003507","CL96878131 Жалоба. Забродин Николай Валентинович","","Завершено","","Байкал","","Орлова Наталья Валерьевна"
"SFSTRY0005416","SCTASK0211264 (инцидент на Костю из почты) (S2)","1","Завершено","Выполнено","Байкал","","Григорьев Константин Владимирович"
"SFSTRY0002599","ПЛ доработки по аддендумам- тестирование ","1","Завершено","","Байкал","Пушина Наталья Сергеевна","Павлухина Татьяна Равильевна"
"SFSTRY0006855","[PI 7.1] ЛК ИГС-Жизнь : Вывод контактов в подробной инфо о корп. полисе НС [РФN] CHG0055596","3","Завершено","Выполнено","Байкал","Фёклин Александр Александрович","Морозов Роман Александрович"
"SFSTRY0007355","[Спайк] ЛК Мои данные : при автозаполнении в ЗК не добавляется автомобиль из договора ОСАГО","1","Черновик","","Байкал","","Орлова Наталья Валерьевна"
"SFSTRY0007774","[PI 7.2] ТЗ для Агимы : Автоплатежи франшизы по ДМС ЗХ [Ф]","1","Черновик","","Байкал","","Фёклин Александр Александрович"
"SFSTRY0007529","SSO.","1","Завершено","Отложено","Байкал","","Шувалов Борис Викторович"
"SFSTRY0007452","{Next PI} Создание убытка по договору ОСАГО из IngoMobile. 3 часть","6","Черновик","","Байкал","","Григорьев Константин Владимирович"
"SFSTRY0003721","CTASK0349608 Обращение Краснова С.М. ","0","Завершено","Отменено","Байкал","",""
"SFSTRY0006498","[PI 6.2] Онлайн заявки КБМ : Модификация формы отправки заявки КБМ из ЛК (Спайк) [ФР]","1","Завершено","Выполнено","Байкал","Морозов Роман Александрович","Фёклин Александр Александрович"
"SFSTRY0005734","(UP)SSO: восстановление пароля на локальном провайдере и на блитце (pi5s4)","0","Завершено","Выполнено","Байкал","Павлухина Татьяна Равильевна","Агибалов Станислав Александрович"
"SFSTRY0005589","ЛК Убытки ИФЛ, КИС. Общая информация","2","Завершено","Выполнено","Байкал","Фёклин Александр Александрович, Григорьев Константин Владимирович","Киклевич Андрей Олегович"
"SFSTRY0003349","INC0160151 > TASK0040042 ошибка расчета при создании аддендума","","Завершено","Отменено","Байкал","","Морозов Роман Александрович"
"SFSTRY0005329","SSO : Создание схемы тестовых сценариев","0","Завершено","Выполнено","Байкал","","Агибалов Станислав Александрович"
"SFSTRY0006152","[PI5.5] PI6. Spike. FAQ.","1","Завершено","Отменено","Байкал","","Агибалов Станислав Александрович"
"SFSTRY0004319","Оплата регресса(S1)(S2)(S3)","2","Завершено","Выполнено","Байкал","Пушина Наталья Сергеевна, Павлухина Татьяна Равильевна, Шувалов Борис Викторович","Орлова Наталья Валерьевна"
"SFSTRY0004502","ИГС-Ж : Название продуктов в списке полисов и детальной инфо","2","Завершено","","Байкал","Киклевич Андрей Олегович, Фёклин Александр Александрович","Морозов Роман Александрович"
"SFSTRY0006860","{Next PI} Автоплатежи : Отправка SMS , e-mail по привязанным картам с истекшим сроком [К]","","Черновик","","Байкал","","Григорьев Константин Владимирович"
"SFSTRY0007828","[PI 7.3] Разработка проектного решения по развитию платежного сервиса : Консультация архитекторов [НБ]","2","Черновик","","Байкал","",""
"SFSTRY0005662","TASK0050744 не проходит онлайн-оплата по договору CL109533493","0","Завершено","Отменено","Байкал","",""
"SFSTRY0003968","[INC] В ЛК застрахованного на сайте не отображается список клиник по г.Н.Новгород","","Завершено","","Байкал","","Морозов Роман Александрович"
"SFSTRY0004842","МП Убытки. Заявление убытков ИФЛ","2","Завершено","Выполнено","Байкал","Фёклин Александр Александрович","Григорьев Константин Владимирович"
"SFSTRY0003723","Создание заявок на изменение полисов ИГС-Ж","","Завершено","","Байкал","",""
"SFSTRY0005628","[В рамках багов]CHG0048695 Доработки отображения статуса урег. убытка КАСКО, ОСАГО. Доработка Claimlist3+api","1","Завершено","Выполнено","Байкал","","Григорьев Константин Владимирович"
"SFSTRY0006056","ЛК Ипотека (личный кабинет, ипотека). Заявки по КИС : устранить недочеты в методах web API ЛК 1 пункт","2","Завершено","Выполнено","Байкал","","Морозов Роман Александрович"
"SFSTRY0006493","удалить - дубль [PI 6.2] МП самоосмотр : ошибка при повторной загрузки файла [П]","1","Завершено","Дубликат","Байкал","","Пушина Наталья Сергеевна"
"SFSTRY0007167","[PI 7.1] Баг определения признака ""Мультидрайв"" для полисов ОСАГО в процессе пересмотра КБМ [НN] CHG0055226","2","Завершено","Выполнено","Байкал","Никитина Алла Гургеновна","Орлова Наталья Валерьевна"
"SFSTRY0002601","CHG0047268 Программа лояльности (доработки история)","2","Завершено","","Байкал","Павлухина Татьяна Равильевна, Пушина Наталья Сергеевна, Шувалов Борис Викторович, Орлова Наталья Валерьевна",""
"SFSTRY0004986","[Next PI] API для адендумы ОСАГО в новом интерфейсе (S4PI5) (ПРТ)","5","Черновик","","Байкал","Павлухина Татьяна Равильевна, Пушина Наталья Сергеевна","Морозов Роман Александрович"
"SFSTRY0004843","МП Убытки. В списке СТОА передавать атрибуты тип работы (S2)","2","Завершено","Выполнено","Байкал","","Григорьев Константин Владимирович"
"SFSTRY0007975","[PI 7.4] Спайк : Рекуррентная оплата счета на франшизу по ДМС [НФ]","2","Черновик","","Байкал","","Орлова Наталья Валерьевна"
"SFSTRY0008008","[PI 7.4] Метод списка наименований НАЭБ и офисов [КN]","2","Черновик","","Байкал","","Григорьев Константин Владимирович"
"SFSTRY0004967","[PI6] FAQ. Модуль по вопросам и ответам (C??)","0","Завершено","Дубликат","Байкал","","Агибалов Станислав Александрович"
"SFSTRY0004964","Заявление убытков ИФЛ","2","Завершено","Выполнено","Байкал","Григорьев Константин Владимирович","Фёклин Александр Александрович"
"SFSTRY0005960","Доработка отображения полиса ВЗР связанного с ДМС","1","Завершено","Выполнено","Байкал","Фёклин Александр Александрович","Шувалов Борис Викторович"
"SFSTRY0004977","баги","11","Завершено","Отменено","Байкал","",""
"SFSTRY0002602","ЛК - ИГС-Ж Отбор полисов в ЛК","2","Завершено","","Байкал","Киклевич Андрей Олегович","Фёклин Александр Александрович"
"SFSTRY0006145","PI6. Spike. Мои рассчеты. ","1","Завершено","Выполнено","Байкал","","Шувалов Борис Викторович"
"SFSTRY0005536","ЛК Убытки ДМС. Общая информация","2","Завершено","Выполнено","Байкал","Пушина Наталья Сергеевна","Григорьев Константин Владимирович"
"SFSTRY0004851","ЛК Убытки. Статус урегулирования убытков ДМС (S2) (разбили на 4 истории)","0","Завершено","Дубликат","Байкал","Пушина Наталья Сергеевна","Григорьев Константин Владимирович"
"SFSTRY0006155","[PI5.5] PI6. Spike. понять что доделать кроме Е-ОСАГО","1","Завершено","Отменено","Байкал","","Агибалов Станислав Александрович"
"SFSTRY0007051","{Next PI} МП Заявление убытка ИФЛ : Доработать метод CLAIM.AGROBJRISKLIST","","Черновик","","Байкал","","Григорьев Константин Владимирович"
"SFSTRY0002583","Анализ по действиям (справочники)","5","Завершено","","Байкал","","Пушина Наталья Сергеевна"
"SFSTRY0006566","[PI 7.4] Рефакторинг : AIS.Claim.SaveResultRSAForeignPolicy [К]","2","Черновик","","Байкал","","Григорьев Константин Владимирович"
"SFSTRY0005295","SSO : Формирование тестовых сценариев","0","Завершено","Выполнено","Байкал","","Агибалов Станислав Александрович"
"SFSTRY0007750","[PI 7.1] SSO : Авторизация по номеру мобильного телефона [БН] CHG0055281","1","Завершено","Выполнено","Байкал","Шувалов Борис Викторович","Орлова Наталья Валерьевна"
"SFSTRY0005610","[PI6] Отключение автоплатежа по франшизе из полиса ДМС","0","Завершено","Дубликат","Байкал","",""
"SFSTRY0005004","ЛК ДМС - Отображение VIP-врача-куратора (S4) (РТП)","3","Завершено","Выполнено","Байкал","Павлухина Татьяна Равильевна, Орлова Наталья Валерьевна, Пушина Наталья Сергеевна","Морозов Роман Александрович"
"SFSTRY0004480","Отладка метода по истории программы лояльности","6","Завершено","","Байкал","Павлухина Татьяна Равильевна, Пушина Наталья Сергеевна, Морозов Роман Александрович","Орлова Наталья Валерьевна"
"SFSTRY0004507","Переделка pop-up под ""Пикси"", прототип","0","Завершено","Отменено","Байкал","","Агибалов Станислав Александрович"
"SFSTRY0007084","[PI 6.2]  ИНЦ: Минимизация последствий ошибок работы с сервисом коротких ссылок.","0","Завершено","Выполнено","Байкал","","Орлова Наталья Валерьевна"
"SFSTRY0006289","[PI 6.1]  ЛК. Продление ОСАГО в МП : Доработка продления ОСАГО [НПА]","5","Завершено","Выполнено","Байкал","Орлова Наталья Валерьевна","Пушина Наталья Сергеевна"
"SFSTRY0004560","Инцидент. !! Ошибки оплаты по ОСАГО ","2","Завершено","Выполнено","Байкал","Павлухина Татьяна Равильевна","Орлова Наталья Валерьевна"
"SFSTRY0006801","[PI 7.2] ТЗ для Агимы : Требования для UI вывода подробной инфо по архивным договорам [ФР]","1","Черновик","","Байкал","Морозов Роман Александрович","Фёклин Александр Александрович"
"SFSTRY0007090","Внедрение на сайте ingos.ru reCAPTCHA v3 для опытной эксплуатации","4","Завершено","Выполнено","Байкал","","Шувалов Борис Викторович"
"SFSTRY0007769","[PI 7.2] SSO : Группировка функциональности по ответственности [Б]","1","В работе","","Байкал","","Шувалов Борис Викторович"
"SFSTRY0003316","CHG0048489 Доработка шлюза оплаты. Сбербанк","3","Завершено","","Байкал","Орлова Наталья Валерьевна, Шувалов Борис Викторович, Пушина Наталья Сергеевна, Фёклин Александр Александрович, Павлухина Татьяна Равильевна",""
"SFSTRY0006075","Разработка прототипа сервиса работы с функциональными переключателями (ФП).","0","Завершено","Выполнено","Байкал","","Шувалов Борис Викторович"
"SFSTRY0003678","Запрос/заявки по номеру полиса","2","Завершено","","Байкал","",""
"SFSTRY0003350","SSO доработки сайт","8","Завершено","","Байкал","","Агибалов Станислав Александрович"
"SFSTRY0006195","[PI 6.1] ЛК Входная группа : Убрать отчество из обязательных параметров [НА]","2","Завершено","Выполнено","Байкал","Фёклин Александр Александрович, Никитина Алла Гургеновна","Морозов Роман Александрович"
"SFSTRY0004852","ИГС-Ж. Доработка метода AISGate в ИГС-Ж (требования) (S2)(S3)  (Делает Ф)","2","Завершено","Выполнено","Байкал","","Фёклин Александр Александрович"
"SFSTRY0007170","МП Убытки : Метод получения данных о полисе ОСАГО (ЗНИ CHG0053959)","2","Завершено","Выполнено","Байкал","Никитина Алла Гургеновна","Григорьев Константин Владимирович"
"SFSTRY0002794","Тестирование CHG0048970 Статус страхового случая по ИФЛ, Ипотека. Доработки по стадиям и ближайшим действиям (S2)","0","Завершено","Дубликат","Байкал","Григорьев Константин Владимирович, Фёклин Александр Александрович, Киклевич Андрей Олегович","Киклевич Андрей Олегович"
"SFSTRY0006804","{Next PI} ЛК. ДМС - автоплатежи :  Логирование события привязки и отвязки на очереди карточки клиента [НФА]","2","Черновик","","Байкал","","Фёклин Александр Александрович"
"SFSTRY0005099","[PI 7.3] ПЛ : Операции списания при отмене не выводить в истории ПЛ в ЛК/МП [НN] CHG0049738","2","Готово для разработки","","Байкал","Павлухина Татьяна Равильевна, Пушина Наталья Сергеевна","Орлова Наталья Валерьевна"
"SFSTRY0002786","ЛК Ипотека : прекращение договора, перерасчет, исключение риска","13","Завершено","","Байкал","Фёклин Александр Александрович, Орлова Наталья Валерьевна, Павлухина Татьяна Равильевна, Киклевич Андрей Олегович","Морозов Роман Александрович"
"SFSTRY0007755","[PI 7.1] МП : Включить регионы для возможности заявления убытка КАСКО [К] 1/2 SP","1","Тестирование","","Байкал","","Григорьев Константин Владимирович"
"SFSTRY0005240","Доработка 2 методов для отображения скидки WSM на сайте для продуктов НС. Колосков","4","Завершено","Выполнено","Байкал","","Орлова Наталья Валерьевна"
"SFSTRY0003666","Доработки ПЛ (Блокировка и списание баллов в ЛК)","0","Завершено","Отменено","Байкал","",""
"SFSTRY0004976","Вкладыш ВЗР на полисе ДМС - выводить отдельной карточкой","4","Завершено","Выполнено","Байкал","Фёклин Александр Александрович","Шувалов Борис Викторович"
"SFSTRY0002614","Git-ORA","2","Завершено","","Байкал","Григорьев Константин Владимирович, Орлова Наталья Валерьевна",""
"SFSTRY0003672","Модуль по вопросам и ответам FAQ (С??)","","Завершено","Дубликат","Байкал","Агибалов Станислав Александрович","Агибалов Станислав Александрович"
"SFSTRY0006247","Технический долг","1","Завершено","Выполнено","Байкал","","Орлова Наталья Валерьевна"
"SFSTRY0004330","{БАГ} CHG0049529 Рефакторинг запроса Sql_id = 9skyfdndh2bk0 ","1","Завершено","Выполнено","Байкал","","Орлова Наталья Валерьевна"
"SFSTRY0004486","ЛК Ипотека: Настройка 6 шаблонов заявлений по договорам КИС","3","Завершено","","Байкал","","Фёклин Александр Александрович"
"SFSTRY0002579","CHG0047871 Возможность создания единого РВС, посадочная страница для всех","3","Завершено","","Байкал","Павлухина Татьяна Равильевна","Орлова Наталья Валерьевна"
"SFSTRY0006847","{Next PI} МП Полисы : Описание вывода ВЗР связанного с полисом ДМС ЗХ","1","Черновик","","Байкал","",""
"SFSTRY0008288","Доработка по фидам яндекса","","Черновик","","Байкал","","Орлова Наталья Валерьевна"
"SFSTRY0003682","Проч. изм. (заявки)","3","Завершено","","Байкал","","Пушина Наталья Сергеевна"
"SFSTRY0005003","{Next PI} МП Убытки. Доработка заполнения данных второго участника ДТП [КА]","2","Черновик","","Байкал","","Григорьев Константин Владимирович"
"SFSTRY0005264","ПЛ. CHG0050383. На странице ПОСЛЕ ОПЛАТЫ, показывается некорректное кол-во начисленных бонусных баллов лояльности  за покупку.","","Завершено","Выполнено","Байкал","Павлухина Татьяна Равильевна","Орлова Наталья Валерьевна"
"SFSTRY0005471","Переключатель активности капчи для тестовой среды","1","Завершено","Выполнено","Байкал","","Шувалов Борис Викторович"
"SFSTRY0007128","ЛК UI : Коммуникации с подрядчиком (Agima) при реализации интерфейсов front-end","2","Завершено","Выполнено","Байкал","Пушина Наталья Сергеевна, Павлухина Татьяна Равильевна, Морозов Роман Александрович","Фёклин Александр Александрович"
"SFSTRY0003317","Отображение полисов в ЛК ИГС-Ж","8","Завершено","","Байкал","Киклевич Андрей Олегович","Морозов Роман Александрович"
"SFSTRY0003405","INC0162502 > REQ0222580 > RITM0223218 > SCTASK0182963 в ЛК не появляется окно добавления сканов при непрохождении проверки в РСА","1","Завершено","","Байкал","Павлухина Татьяна Равильевна","Морозов Роман Александрович"
"SFSTRY0004035","Доработки по ПЛ для WS","","Завершено","","Байкал","","Орлова Наталья Валерьевна"
"SFSTRY0005009","[PI6] Внедрение TFS ЖЦ дефекта (S4) (ТА) (Делает Т)","1","Завершено","Отменено","Байкал","","Павлухина Татьяна Равильевна"
"SFSTRY0006293","[PI 6.1] ЛК-КАСКО : Изменение ВУ и СТС в договорах КАСКО [П]","1","Завершено","Выполнено","Байкал","","Пушина Наталья Сергеевна"
"SFSTRY0006932","[NP] Спайк. Изучение функционала SSO","1","Завершено","Выполнено","Байкал","","Шувалов Борис Викторович"
"SFSTRY0005431","Настройки АИС/WS регистрации агентами куратора убытка в СДП ОДУП начиная с 22/04/2019 согласно гос. номеру а/м","","Черновик","","Байкал","","Григорьев Константин Владимирович"
"SFSTRY0007176","[PI 7.2] Обратная связь на Сайте : Создание задачи в АИС по онлайн обращению [ФНРN]","4","В работе","","Байкал","Морозов Роман Александрович, Орлова Наталья Валерьевна, Киклевич Андрей Олегович","Фёклин Александр Александрович"
"SFSTRY0004969","(Бизнес решил не делать)Отображение контактов ВК по ведению беременности и родам","4","Завершено","Отменено","Байкал","Пушина Наталья Сергеевна","Морозов Роман Александрович"
"SFSTRY0007667","[PI 7.2] МП Убытки : Баг заявления КАСКО с подрисками из МП [К]","1","Черновик","","Байкал","","Григорьев Константин Владимирович"
"SFSTRY0006336","[PI 7.1] ТЗ для Агимы : добавление новой записи ЗК ; изменение ВУ и FIO лат. в профиле [Ф]","2","Завершено","Выполнено","Байкал","","Фёклин Александр Александрович"
"SFSTRY0005605","[PI5.5] (UP)Страница пост-оплаты. Оплата регресса и франшизы (S4)","0","Завершено","Дубликат","Байкал","",""
"SFSTRY0004307","(S1)Разработка библиотеки FeatureToggle для сайта ingos.ru.","","Завершено","","Байкал","","Шувалов Борис Викторович"
"SFSTRY0006332","[PI 6.1] ЛК-Мои данные : в ЗК добавляются ФИО в верхнем регистре из Путешествий по России [НФТ] CHG0053153","1","Завершено","Выполнено","Байкал","Павлухина Татьяна Равильевна, Орлова Наталья Валерьевна, Никитина Алла Гургеновна","Фёклин Александр Александрович"
"SFSTRY0005538","ЛК Убытки. Чеклист ДМС (S3)","2","Завершено","Выполнено","Байкал","Пушина Наталья Сергеевна","Григорьев Константин Владимирович"
"SFSTRY0005848","В ответе метода web API ЛК по Записной книжке не заполнен адрес регистрации страхователя","2","Завершено","Выполнено","Байкал","Морозов Роман Александрович","Фёклин Александр Александрович"
"SFSTRY0007745","[PI 7.1] SSO : Изучение нового конвейера авторизации [Б]","1","Завершено","Выполнено","Байкал","","Шувалов Борис Викторович"
"SFSTRY0003579","Детальная ДМС полис Телемед - баннер «Доктор рядом»","","Завершено","","Байкал","","Морозов Роман Александрович"
"SFSTRY0006151","PI6. Spike. ИГС-Ж. Вывод полисов","1","Завершено","Выполнено","Байкал","","Фёклин Александр Александрович"
"SFSTRY0006570","[PI 6.2] Рефакторинг запроса WSLoyalty","2","Завершено","Выполнено","Байкал","","Орлова Наталья Валерьевна"
"SFSTRY0006156","[PI5.5] PI6.Spike. Регистрация в Е-ОСАГО через номер телефона + преддверие SSO","1","Завершено","Отменено","Байкал","","Агибалов Станислав Александрович"
"SFSTRY0005615","{Next PI} ЛК ДМС : Отображение действия «привязать карту» в списке полисов (рабочий стол, мои полисы)","","Черновик","","Байкал","",""
"SFSTRY0005205","[Next PI] ЛК Ипотека (личный кабинет, ипотека). Заявки по КИС : устранить недочеты в методах web API ЛК","0","Черновик","","Байкал","",""
"SFSTRY0004510","Разбор ошибок ""сервис временно не доступен"" на бою в методах авторизации, регистрации, активации ПЛ","4","Завершено","","Байкал","","Морозов Роман Александрович"
"SFSTRY0006550","[PI 7.2] ТЗ для Агимы : Запрос на добавление полиса ДМС ребёнка [Ф]","1","В работе","","Байкал","","Пушина Наталья Сергеевна"
"SFSTRY0006451","[PI 6.2]  Оплата регресса: Корректная фиксация онлайн оплаты счета по регрессу в АИС [НП]","3","Завершено","Выполнено","Байкал","Пушина Наталья Сергеевна","Орлова Наталья Валерьевна"
"SFSTRY0005614","[PI6] ЛК ДМС. Логирование привязки / перепривязки карты к застрахованному по ДМС","0","Завершено","Дубликат","Байкал","",""
"SFSTRY0004558","Рефакторинг функций и процедур АИС (S1)","","Завершено","","Байкал","","Григорьев Константин Владимирович"
"SFSTRY0007132","[PI 6.2]  ЛК Убытки : Доработки метода api детальной инфо о страховом событии","1","Завершено","Выполнено","Байкал","Фёклин Александр Александрович, Павлухина Татьяна Равильевна, Никитина Алла Гургеновна","Морозов Роман Александрович"
"SFSTRY0004868","Привязка/перепривязка карты к полису ДМС с франшизой CHG0051142 (S2)","0","Завершено","Выполнено","Байкал","Орлова Наталья Валерьевна, Фёклин Александр Александрович, Павлухина Татьяна Равильевна","Шувалов Борис Викторович"
"SFSTRY0006144","[PI5.5] PI6. Spike. Раздел спецпредложений. Доработка","1","Завершено","Отменено","Байкал","","Фёклин Александр Александрович"
"SFSTRY0005201","Полисы ИГС-Ж : название продукта в титуле полиса выводить в кавычках","1","Завершено","Выполнено","Байкал","Пушина Наталья Сергеевна","Морозов Роман Александрович"
"SFSTRY0005396","Инцидент: TASK0050271 предложение по распределению СДП + ЛИ СИП на Гурова Е.","1","Завершено","Выполнено","Байкал","","Григорьев Константин Владимирович"
"SFSTRY0003322","Финальная версия тест плана","2","Завершено","","Байкал","Павлухина Татьяна Равильевна",""
"SFSTRY0007837","[PI 7.4] Фиксация / получение кода из РСА при авторизации через ГосУслуги [НБ]","1","Черновик","","Байкал","",""
"SFSTRY0008528","Добавление полиса в ЛК : обрабатывать в web API доп. кейс создания задачи в АИС","1","Черновик","","Байкал","",""
"SFSTRY0006791","[PI 6.3] ЛК, МП - программа лояльности:  Активация пользователя в ПЛ при регистрации + из раздела ПЛ [ПТ]","1","Завершено","Выполнено","Байкал","Павлухина Татьяна Равильевна","Пушина Наталья Сергеевна"
"SFSTRY0007836","[PI 7.4] SSO : Тестирование базовых сценариев на тестовой среде и Beta [N]","4","Черновик","","Байкал","","Никитина Алла Гургеновна"
"SFSTRY0007746","[PI 7.1] SSO : Удаление устаревшего кода и дублирования [Б]","1","Завершено","Выполнено","Байкал","","Шувалов Борис Викторович"
"SFSTRY0003680","Изм. условий онлайн доб./удаление водителей/ собств.","13","Завершено","","Байкал","Павлухина Татьяна Равильевна, Пушина Наталья Сергеевна","Морозов Роман Александрович"
"SFSTRY0003365","[INC] SCTASK0181292 проведение онлайн- оплаты CL104221396","","Завершено","","Байкал","","Орлова Наталья Валерьевна"
"SFSTRY0005007","(UP)Рефакторинг заявок КБМ (S4) (П) ??? (Р?)","0","Завершено","Выполнено","Байкал","Фёклин Александр Александрович","Пушина Наталья Сергеевна"
"SFSTRY0007345","ЛК UI : Коммуникации с подрядчиком (Agima) при реализации интерфейсов front-end","1","Завершено","Выполнено","Байкал","Пушина Наталья Сергеевна, Шувалов Борис Викторович","Фёклин Александр Александрович"
"SFSTRY0005862","[PI5.5] Спайк по ИГС-Ж + тру инжиниринг","1","Завершено","Дубликат","Байкал","","Орлова Наталья Валерьевна"
"SFSTRY0007152","ЛК Уведомления : Доработка отображения статуса заявки на проверку КБМ","1","Завершено","Выполнено","Байкал","Фёклин Александр Александрович, Павлухина Татьяна Равильевна, Никитина Алла Гургеновна","Морозов Роман Александрович"
"SFSTRY0005444","письмо от Влада Крылова","0","Завершено","Отменено","Байкал","","Орлова Наталья Валерьевна"
"SFSTRY0006780","[NP] Спайк. Проработка плана внедрения reCaptcha V3 на сайте ingos.ru","1","Завершено","Выполнено","Байкал","","Шувалов Борис Викторович"
"SFSTRY0008534","Добавление полиса ДМС в ЛК : корректно обрабатывать кейс, когда застрахованный является дубликатом пользователя ЛК","","Черновик","","Байкал","",""
"SFSTRY0007337","[PI 7.1] Создание убытка по договору ОСАГО из IngoMobile (версия 1.0 - MVP) CHG0054509 [КN]","4","Готово для тестирования","","Байкал","Никитина Алла Гургеновна","Григорьев Константин Владимирович"
"SFSTRY0005398","  Письмо от Дудина : просьба проконсультировать по  договору CL107713740 ","1","Завершено","Выполнено","Байкал","","Морозов Роман Александрович"
"SFSTRY0007403","{Next PI} Формирование очереди при списании 1 рубля для добавления binding в карточку клиента","3","Черновик","","Байкал","",""
"SFSTRY0004854","ИГС-Ж. Онлайн-заявка на изменение полиса","2","Завершено","Выполнено","Байкал","Киклевич Андрей Олегович, Фёклин Александр Александрович","Морозов Роман Александрович"
"SFSTRY0006385","[PI 6.1] Онлайн чат : Исправление маршрутизации заявок из онлайн-чата [РА-Т]","2","Завершено","Выполнено","Байкал","Никитина Алла Гургеновна, Павлухина Татьяна Равильевна","Морозов Роман Александрович"
"SFSTRY0004863","[PI5.5] (UP)Отчеты в АИС по действиям пользователя ЛК, заведение метрик действий и ошибок (S3)(S4)","0","Завершено","Выполнено","Байкал","Павлухина Татьяна Равильевна, Пушина Наталья Сергеевна","Орлова Наталья Валерьевна"
"SFSTRY0006334","[PI 6.1] ЛК-Мои данные : в UI ЗК устранены замечания к отображению и изменению объектов [ФТ]","2","Завершено","Выполнено","Байкал","Павлухина Татьяна Равильевна","Фёклин Александр Александрович"
"SFSTRY0004862","(UP)ЛК Сопровождение. ЛК - Детальная инфо по заявкам (S2)(S3)(S4)(РАП)","0","Завершено","Выполнено","Байкал","Киклевич Андрей Олегович, Пушина Наталья Сергеевна","Морозов Роман Александрович"
"SFSTRY0003315","Отмена платежа","8","Завершено","","Байкал","Шувалов Борис Викторович, Пушина Наталья Сергеевна, Орлова Наталья Валерьевна, Павлухина Татьяна Равильевна","Орлова Наталья Валерьевна"
"SFSTRY0004876","Пперенаправлять в новый личный кабинет вместо старого при авторизации через ЕСИА","1","Завершено","Выполнено","Байкал","Павлухина Татьяна Равильевна","Морозов Роман Александрович"
"SFSTRY0003664","Дефекты/инциденты спринт 3","5","Завершено","","Байкал","",""
"SFSTRY0003504","Восстановление тестового сайта","","Завершено","","Байкал","","Шувалов Борис Викторович"
"SFSTRY0007820","[PI 7.3] SSO : Повышение компетенции в Angular 6","1","Черновик","","Байкал","","Шувалов Борис Викторович"
"SFSTRY0008011","[PI 7.4] Доработка выгрузки офисов для Яндекс и Google [Н]","2","Черновик","","Байкал","","Орлова Наталья Валерьевна"
"SFSTRY0004667","SSO : Имплементация REDIS как кеша","1","Завершено","Выполнено","Байкал","","Агибалов Станислав Александрович"
"SFSTRY0007760","[PI 7.1] Анализ метода кросс-продуктов для МП [НП] 1/2 SP","1","Завершено","Выполнено","Байкал","Пушина Наталья Сергеевна","Орлова Наталья Валерьевна"
"SFSTRY0005878","[В рамках багов] Консультация по договору CL103743987","1","Завершено","Выполнено","Байкал","","Орлова Наталья Валерьевна"
"SFSTRY0006802","[PI 6.3] ЛК. ДМС - автоплатежи :  Вывод блока автоплатеж по франшизе в подробной инфо по ДМС [ФБА] CHG0054901","2","Завершено","Выполнено","Байкал","Шувалов Борис Викторович, Киклевич Андрей Олегович, Морозов Роман Александрович","Фёклин Александр Александрович"
"SFSTRY0004325","Отображение скидок WSM в ЛК","1","Завершено","Выполнено","Байкал","Павлухина Татьяна Равильевна","Морозов Роман Александрович"
"SFSTRY0005318","Письмо от Валитовой Татьяны","0","Завершено","Отменено","Байкал","","Орлова Наталья Валерьевна"
"SFSTRY0002793","Тестирование отображения статуса урег. убытка КАСКО, ОСАГО. Доработка Claimlist3+api CHG0048695","5","Завершено","","Байкал","Фёклин Александр Александрович, Киклевич Андрей Олегович, Григорьев Константин Владимирович, Морозов Роман Александрович","Киклевич Андрей Олегович"
"SFSTRY0004306","Привязка оплаты к полисам","1","Завершено","","Байкал","Павлухина Татьяна Равильевна","Орлова Наталья Валерьевна"
"SFSTRY0007066","Сайт-офисы : Доработка фидов выгрузки по офису для Google maps в отчете Excel","1","Завершено","Выполнено","Байкал","Пушина Наталья Сергеевна, Никитина Алла Гургеновна","Орлова Наталья Валерьевна"
"SFSTRY0006269","[PI 6.1] Сайт ingos.ru : Замена отбивки в форме обратной связи (Спайк) [Ф]","1","Завершено","Выполнено","Байкал","Морозов Роман Александрович, Орлова Наталья Валерьевна","Фёклин Александр Александрович"
"SFSTRY0007770","[PI 7.2] SSO : Переход на новый формат Principal [Б]","1","В работе","","Байкал","","Шувалов Борис Викторович"
"SFSTRY0007415","[спайк] Оплата франшизы по номеру счета","2","Черновик","","Байкал","",""
"SFSTRY0004980","Баги 2 Sprint","9","Завершено","Выполнено","Байкал","",""
"SFSTRY0005412","CHG0049831 письмо от Трубиной","0","Завершено","Отменено","Байкал","",""
"SFSTRY0007603","В одной строчке убрать обязательность одного параметра. АИС CHG0054598","1","Завершено","Выполнено","Байкал","","Григорьев Константин Владимирович"
"SFSTRY0002612","Разработка сценариев для Регресса ЛК","5","Завершено","","Байкал","Киклевич Андрей Олегович","Павлухина Татьяна Равильевна"
"SFSTRY0006512","[PI 6.2]  Оплата регресса: Отправка оповещений после успешной онлайн оплаты регресса [НПТ]","2","Завершено","Выполнено","Байкал","Павлухина Татьяна Равильевна, Пушина Наталья Сергеевна","Орлова Наталья Валерьевна"
"SFSTRY0004505","Снять проверку просроченной франшизы при ее оплате (Осталось тестирование)(S1)","2","Завершено","Выполнено","Байкал","Павлухина Татьяна Равильевна, Пушина Наталья Сергеевна","Орлова Наталья Валерьевна"
"SFSTRY0004490","(S1)Заявление убытков ИФЛ","","Завершено","","Байкал","Григорьев Константин Владимирович","Фёклин Александр Александрович"
"SFSTRY0004554","(S1)Внедрение кеширования через Redis на сайте (Кеширование запросов информации о пользователе) (Б)","1","Завершено","Выполнено","Байкал","","Шувалов Борис Викторович"
"SFSTRY0007816","[PI 7.2] ЛК : Переключение продления ОСАГО на новый процесс CHG0054519 [Б] 1/2 SP","1","Завершено","","Байкал","","Шувалов Борис Викторович"
"SFSTRY0006856","[PI 6.4] FAQ : Разработка модуля - навигатора по контенту [С]","6","Черновик","","Байкал","","Агибалов Станислав Александрович"
"SFSTRY0005297","Письмо от Артема ","0","Завершено","Отменено","Байкал","",""
"SFSTRY0007423","[PI 7.2] Метод заявления убытка по ОСАГО из IngoMobile, часть 2 (готов к тестированию) [К]","3","В работе","","Байкал","Никитина Алла Гургеновна","Григорьев Константин Владимирович"
"SFSTRY0007831","[PI 7.4] ЛК : Приёмка UI страховых событий по ДМС [П]","3","Черновик","","Байкал","","Пушина Наталья Сергеевна"
"SFSTRY0005399","SSO : Переключение конфигураций на лету, без перезапуска сайта","4","Завершено","Выполнено","Байкал","","Агибалов Станислав Александрович"
"SFSTRY0005272","[PI 7.2] Добавление полиса в ЛК : Актуализация алгоритма создания задачи в АИС [ФР]","1","Завершено","Выполнено","Байкал","Морозов Роман Александрович, Пушина Наталья Сергеевна, Шувалов Борис Викторович, Никитина Алла Гургеновна, Киклевич Андрей Олегович, Фёклин Александр Александрович, Васильков Илья Александрович, Григорьев Константин Владимирович, Орлова Наталья Валерьевна, Кайнов Илья Михайлович, Амплеев Евгений Михайлович","Фёклин Александр Александрович"
"SFSTRY0004054","Конвертация загружаемых файлов в формат в соответствии с ТЗ CHG0049765","","Завершено","","Байкал","Григорьев Константин Владимирович","Морозов Роман Александрович"
"SFSTRY0004968","Индексация SPA в поисковиках (спайк) (S3)","0","Завершено","Выполнено","Байкал","","Агибалов Станислав Александрович"
"SFSTRY0004941","Исследование SCTASK0199331 ","1","Завершено","","Байкал","","Орлова Наталья Валерьевна"
"SFSTRY0005320","SSO : Формирование общих сценариев в общей схеме","0","Завершено","Выполнено","Байкал","","Агибалов Станислав Александрович"
"SFSTRY0003719"," пример xml для созданных кросс-продуктов","2","Завершено","","Байкал","","Орлова Наталья Валерьевна"
"SFSTRY0003686","Дефекты/ инциденты. Итерация 4","5","Завершено","","Байкал","Орлова Наталья Валерьевна",""
"SFSTRY0005592","[PI5.5] (UP)ЛК Убытки ИФЛ/КИС. Отображение документов(S4)","0","Завершено","Дубликат","Байкал","Фёклин Александр Александрович, Григорьев Константин Владимирович","Киклевич Андрей Олегович"
"SFSTRY0006534","{Next PI} ЛК Полисы : Продленная гарантия Овертайм в ЛК (Спайк) [Ф]","1","Черновик","","Байкал","","Фёклин Александр Александрович"
"SFSTRY0003348","INC0144567 > TASK0038587 Меняется прописка на Москву ","","Завершено","","Байкал","","Морозов Роман Александрович"
"SFSTRY0005002","{Next PI} МП Убытки : Доработка сохранения в убытке АИС конкретных СТО из списка головной организации [К]","","Черновик","","Байкал","","Григорьев Константин Владимирович"
"SFSTRY0005594","[PI6] Дефект. Ошибка при создании задачи на привязку полиса. ","0","Завершено","Отменено","Байкал","",""
"SFSTRY0006148","[PI5.5] PI6. Spike. Онлайн чат доработать логику маршрутизации.","1","Завершено","Выполнено","Байкал","","Морозов Роман Александрович"
"SFSTRY0005886","[PI5.5] (UP)Регресс. Корректное уведомление на e-mail об успешной онлайн оплате регресса (S4)","0","Завершено","Дубликат","Байкал","","Орлова Наталья Валерьевна"
"SFSTRY0006146","PI6. Spike. Замена отбивки в обратной связи(старая форма и верстка) +Б","1","Завершено","Выполнено","Байкал","Шувалов Борис Викторович, Морозов Роман Александрович","Фёклин Александр Александрович"
"SFSTRY0004839","(S1)Настройка доступа к документации Swagger api сайта","1","Завершено","Выполнено","Байкал","","Шувалов Борис Викторович"
"SFSTRY0006532","[PI 6.2] ЛК ДМС : Онлайн обращения ЗХ по ДМС - правый блок в подробной инфо [ФР]","1","Завершено","Выполнено","Байкал","Никитина Алла Гургеновна, Фёклин Александр Александрович","Морозов Роман Александрович"
"SFSTRY0007752","[PI 7.1] Спайк : Дополнение коммуникаций Онлайн-чата [Р]","1","Завершено","","Байкал","","Морозов Роман Александрович"
"SFSTRY0006797","[PI 6.3] Страница постоплаты :  Страница постоплаты по очередным взносам [НПТБ]","1","Завершено","Выполнено","Байкал","Орлова Наталья Валерьевна, Шувалов Борис Викторович, Павлухина Татьяна Равильевна","Пушина Наталья Сергеевна"
"SFSTRY0007189","[PI 7.1] Онлайн заявки КБМ : Модификация формы отправки заявки КБМ из ЛК [ФРN] CHG0055608","3","Завершено","Выполнено","Байкал","Фёклин Александр Александрович","Морозов Роман Александрович"
"SFSTRY0007825","[PI 7.3] reCAPTCHA v.3 : Выбор компонента работы с капчей для Angular 6 [РБ]","1","Черновик","","Байкал","","Морозов Роман Александрович"
"SFSTRY0005646","Письмо от Артема , косяк в ЛК при продление КАСКО через ЛК. (договор С РАССРОЧКОЙ на 12 МЕСЯЦЕв, именно )","1","Завершено","Выполнено","Байкал","","Фёклин Александр Александрович"
"SFSTRY0007762","[PI 7.1] Спайк по сущности оплаты регресса 76 счет [Н]","1","Черновик","","Байкал","","Орлова Наталья Валерьевна"
"SFSTRY0007137","ЛК-автоплатежи: добавить блок настройки автоплатежа в подробную инфо о полисе CHG0054877","3","Завершено","Выполнено","Байкал","Пушина Наталья Сергеевна, Никитина Алла Гургеновна","Морозов Роман Александрович"
"SFSTRY0006149","PI6. Spike. Группа приемки у агимы. + БС","1","Завершено","Выполнено","Байкал","Агибалов Станислав Александрович, Шувалов Борис Викторович","Морозов Роман Александрович"
"SFSTRY0007178","PI6. SSO. Проблема на тестовом сервере. Большой размер кук, в результате на сервере Bad Request","2","Завершено","Выполнено","Байкал","","Шувалов Борис Викторович"
"SFSTRY0007533","[PI 7.1] ЛК : Тестовые данные + тест-кейсы для страховых событий по КАСКО, ОСАГО [ФА]","3","Завершено","Выполнено","Байкал","Киклевич Андрей Олегович","Фёклин Александр Александрович"
"SFSTRY0005654","Письмо от Самонова Алёна Сергеевна (ДИТ) <Alena.Kuznetsova@ingos.ru>","","Завершено","Отменено","Байкал","",""
"SFSTRY0006153","PI6. Spike. Заявки КБМ","1","Завершено","Выполнено","Байкал","","Фёклин Александр Александрович"
"SFSTRY0003979","Регресс оплаты","","Завершено","","Байкал","","Павлухина Татьяна Равильевна"
"SFSTRY0002576","Заявление убытка с учётом класса рисков + 2 участника","5","Завершено","","Байкал","Григорьев Константин Владимирович",""
"SFSTRY0008241","Доработка метода MOBILE.PAY.GETPAYAGRDOCINFO для МП","","Черновик","","Байкал","","Орлова Наталья Валерьевна"
"SFSTRY0006513","[PI 6.2] ЛК-отчеты : Действия пользователяв ЛК [НТ]","5","Черновик","","Байкал","","Орлова Наталья Валерьевна"
"SFSTRY0006386","[PI 6.1] SSO : Слиться с Develop [С]","2","Завершено","Выполнено","Байкал","","Агибалов Станислав Александрович"
"SFSTRY0007985","[PI 7.4] Обратная связь на Сайте : Выбор оценки на форме и фиксация в АИС [ФРНN]","5","Черновик","","Байкал","",""
"SFSTRY0004284","Переименовать поле ""Дата выдачи в/у"" и добавить всплывающую подсказку, как на анкете Е-ОСАГО","","Завершено","","Байкал","","Морозов Роман Александрович"
"SFSTRY0006510","[PI 7.2] ТЗ для Агимы : ДМС Кодовое слово [П]","1","Завершено","","Байкал","","Пушина Наталья Сергеевна"
"SFSTRY0006792","[PI 6.3] ЛК, МП - программа лояльности :  Размещение виджета ПЛ на рабочем столе в ЛК [РПТ] CHG0054803 CHG0054952","2","Завершено","Выполнено","Байкал","Пушина Наталья Сергеевна, Павлухина Татьяна Равильевна, Никитина Алла Гургеновна, Орлова Наталья Валерьевна","Морозов Роман Александрович"
"SFSTRY0003345","INC0146044 > TASK0038447  Создался аддендум но срок в АИС не поменялся","","Завершено","Отменено","Байкал","","Морозов Роман Александрович"
"SFSTRY0005008","Баги (S4)","0","Завершено","Выполнено","Байкал","",""
"SFSTRY0002540","Доработки Rest - сервис Blitz","3","Завершено","","Байкал","Шувалов Борис Викторович",""
"SFSTRY0002603","Калькулятор ОСАГО по маркам моделям. Генератор страниц","5","Завершено","Выполнено","Байкал","Морозов Роман Александрович",""
"SFSTRY0007748","[PI 7.1] SSO : Тестовая страница SSO на Сайте [Б]","1","Завершено","Выполнено","Байкал","","Шувалов Борис Викторович"
"SFSTRY0003658","(S1)Статус страхового случая по ИФЛ, Ипотека + работа с документами","","Завершено","","Байкал","Григорьев Константин Владимирович","Киклевич Андрей Олегович"
"SFSTRY0007200","[PI 7.4] Доработка страницы предоплаты для оплаты регресса и франшизы [НПА]","2","Черновик","","Байкал","","Орлова Наталья Валерьевна"
"SFSTRY0007810","[PI 7.2] Разработка проектного решения по развитию платежного сервиса : Консультация архитекторов [НБ]","2","Черновик","","Байкал","Орлова Наталья Валерьевна","Шувалов Борис Викторович"
"SFSTRY0003319","Дефекты и Инциденты 4.2","5","Завершено","","Байкал","Шувалов Борис Викторович, Морозов Роман Александрович, Павлухина Татьяна Равильевна, Пушина Наталья Сергеевна, Фёклин Александр Александрович, Киклевич Андрей Олегович, Григорьев Константин Владимирович, Орлова Наталья Валерьевна, Агибалов Станислав Александрович",""
"SFSTRY0007819","[PI 7.3] SSO : Перевод на Angular 6 модуля авторизации в шапке Сайта [БР]","1","Черновик","","Байкал","","Морозов Роман Александрович"
"SFSTRY0006933","[NP]Спайк. Доработки по платежному сервису","1","Завершено","Отменено","Байкал","","Шувалов Борис Викторович"
"SFSTRY0007185","PI 6. Внедрение на сайте ingos.ru reCAPTCHA v3 для опытной эксплуатации. Этап 2","3","Завершено","Выполнено","Байкал","","Шувалов Борис Викторович"
"SFSTRY0006248","[БАГ] Рефакторинг запроса Sql_id = 9skyfdndh2bk0 CHG0049529","1","Завершено","Выполнено","Байкал","","Орлова Наталья Валерьевна"
"SFSTRY0002591","Детальная ДМС полис Телемед","3","Завершено","","Байкал","Морозов Роман Александрович",""
"SFSTRY0005203","[PI 6.1] Онлайн заявки по КИС : Доработать определение исполнителя при создании задачи в АИС [ФНА]","1","Завершено","Выполнено","Байкал","Орлова Наталья Валерьевна","Фёклин Александр Александрович"
"SFSTRY0004979","SSO : Добиться отсутствия критиклов по бекенду","3","Завершено","Выполнено","Байкал","","Агибалов Станислав Александрович"
"SFSTRY0003684","Доработки методов записи к врачу ","3","Завершено","Выполнено","Байкал","",""
"SFSTRY0002593","Обзор существующих решений на рынке","3","Завершено","","Байкал","Агибалов Станислав Александрович",""
"SFSTRY0006795","[PI 6.3] Страница постоплаты :  Страница постоплаты по франшизе [НПТБ]","1","Завершено","Выполнено","Байкал","Орлова Наталья Валерьевна, Шувалов Борис Викторович, Павлухина Татьяна Равильевна","Пушина Наталья Сергеевна"
"SFSTRY0006389","[PI 6.1] SSO : Вопрос с версткой IE 11 мобильная верстка [С]","2","Завершено","Выполнено","Байкал","Павлухина Татьяна Равильевна","Агибалов Станислав Александрович"
"SFSTRY0007795","[PI 7.3] Обратная связь на Сайте : Отправка уведомления о формировании онлайн обращения [ФНN]","4","Черновик","","Байкал","","Орлова Наталья Валерьевна"
"SFSTRY0007980","[PI 7.4] Обратная связь на Сайте : Уведомление клиента о закрытии обращения [ФНN]","2","Черновик","","Байкал","",""
"SFSTRY0005591","[PI5.5] (UP)ЛК Убытки. Стадии урегулирования страхового события ИФЛ/КИС (S3)(S4)","0","Завершено","Дубликат","Байкал","Фёклин Александр Александрович, Григорьев Константин Владимирович","Киклевич Андрей Олегович"
"SFSTRY0007069","Спайк на ""МП Убытки : Доработка сохранения в убытке АИС конкретных СТО из списка головной организации""","1","Черновик","","Байкал","Григорьев Константин Владимирович","Фёклин Александр Александрович"
"SFSTRY0003353","[INC] Корректность работы метода ""График платежей""","2","Завершено","","Байкал","Фёклин Александр Александрович, Шувалов Борис Викторович, Павлухина Татьяна Равильевна",""
"SFSTRY0005010","Feature's toggles (S4) (Б)","4","Завершено","Выполнено","Байкал","","Шувалов Борис Викторович"
"SFSTRY0004076","INC0170978 Ошибка при переходе к убытку на сайте.","","Завершено","","Байкал","Павлухина Татьяна Равильевна","Шувалов Борис Викторович"
"SFSTRY0005236","SSO : Подготовка реестра ошибок","3","Завершено","Выполнено","Байкал","","Агибалов Станислав Александрович"
"SFSTRY0003670","ЛК- рефакторинг авторизационной сквозной формы на сайте","0","Завершено","Отменено","Байкал","",""
"SFSTRY0003674","Отладка методов по списку убытков, статусу КАСКО, ОСАГО по результатам реализации АГИМА","0","Завершено","Дубликат","Байкал","",""
"SFSTRY0006794","[PI 6.3] Страница постоплаты : Отображение начисленных баллов ПЛ по кроссам [НПТ]","2","Завершено","Выполнено","Байкал","Орлова Наталья Валерьевна, Павлухина Татьяна Равильевна, Шувалов Борис Викторович","Пушина Наталья Сергеевна"
"SFSTRY0004649","Мелкие отвлечения по обращениям вне команды ","0","Завершено","Выполнено","Байкал","Шувалов Борис Викторович","Фёклин Александр Александрович"
"SFSTRY0002610","Валюта в детальной полиса ""Вектор""","1","Завершено","","Байкал","Шувалов Борис Викторович","Павлухина Татьяна Равильевна"
"SFSTRY0005873","Исследование возможности перевода сайта на новые сервера редис","1","Завершено","Выполнено","Байкал","","Шувалов Борис Викторович"
"SFSTRY0007367","[PI 7.2] Страница постоплаты с кросс-продуктами [ПБА]","1","Черновик","","Байкал","Пушина Наталья Сергеевна, Никитина Алла Гургеновна","Шувалов Борис Викторович"
"SFSTRY0007052","{Next PI} МП Заявление убытка ИФЛ : Доработать метод CLAIM.INSERTPROPCLAIM","4","Черновик","","Байкал","","Григорьев Константин Владимирович"
"SFSTRY0006264","[PI 6.1] ЛК-автоплатежи : Сценарии UI (ТЗ+ТК) привязки/перепривязки карты к полису ДМС с франшизой [ТФ]","2","Завершено","Выполнено","Байкал","Павлухина Татьяна Равильевна","Фёклин Александр Александрович"
"SFSTRY0007771","[PI 7.2] SSO : Взаимодействие с архитекторами по настройке тестового окружения ЕСИА на тестовом Blitz [Б]","1","В работе","","Байкал","","Шувалов Борис Викторович"
"SFSTRY0006938","Убрать одновременный вывод сообщений  ""оплачено полностью"" и ""оплатите взнос""","1","Завершено","Выполнено","Байкал","Фёклин Александр Александрович, Никитина Алла Гургеновна","Морозов Роман Александрович"
"SFSTRY0004987","(UP)Выставить ограничение на количество проверок результата отправки договора в РСА (S4) (РТ)","0","Завершено","Выполнено","Байкал","Павлухина Татьяна Равильевна","Морозов Роман Александрович"
"SFSTRY0006625","[PI 6.2] ЛК Убытки : Отображение стадий урегулирования убытка ДМС (правки + тестирование) [КП]","1","Завершено","Выполнено","Байкал","Пушина Наталья Сергеевна","Григорьев Константин Владимирович"
"SFSTRY0005430","письмо от Душенкова","","Завершено","Отменено","Байкал","",""
"SFSTRY0007062","[PI 6.2]  Сайт-офисы : Доработка фидов выгрузки по офису для Яндекс","2","Завершено","Выполнено","Байкал","Павлухина Татьяна Равильевна, Пушина Наталья Сергеевна, Никитина Алла Гургеновна","Орлова Наталья Валерьевна"
"SFSTRY0005001","Заявление убытков ИФЛ (S4) (ФКА)","1","Завершено","Выполнено","Байкал","","Фёклин Александр Александрович"
"SFSTRY0002788","МП ЛК убытки. Передавать классы рисков для отображения клиентам","3","Завершено","","Байкал","Григорьев Константин Владимирович, Павлухина Татьяна Равильевна",""
"SFSTRY0006147","[PI5.5] PI6. Spike. Доработка stoa.xls  + Ф?","1","Завершено","Дубликат","Байкал","Фёклин Александр Александрович","Орлова Наталья Валерьевна"
"SFSTRY0006577","[PI 6.2] ЛК ДМС : Обновить описание для VIP врача-куратора на подробной инфо [РТА]","1","Завершено","Выполнено","Байкал","","Морозов Роман Александрович"
"SFSTRY0007818","[PI 7.3] SSO : Механизм входа в CMS без IDP Blitz [Б]","1","Черновик","","Байкал","","Шувалов Борис Викторович"
"SFSTRY0006863","ЛК : Приёмка сборки ЛК в сопровождение ДИТ","2","Черновик","","Байкал","",""
"SFSTRY0005356","Проанализировать и сказать какой метод дергать разработчикам МП","0","Завершено","Отменено","Байкал","",""
"SFSTRY0004962","{Next PI} МП Убытки : Проверка статуса справки ГИБДД [К]","3","Черновик","","Байкал","Киклевич Андрей Олегович","Григорьев Константин Владимирович"
"SFSTRY0006337","[PI 6.1] ИГС-Жизнь : Скрыть стоимость в подробной инфо о корп. полисе НС [ФР]","1","Завершено","Выполнено","Байкал","Морозов Роман Александрович","Фёклин Александр Александрович"
"SFSTRY0006793","[PI 6.3] ЛК, МП - программа лояльности: Правила регистрации в ПЛ [НТП] CHG0054295","3","Завершено","Выполнено","Байкал","Пушина Наталья Сергеевна, Павлухина Татьяна Равильевна, Никитина Алла Гургеновна","Орлова Наталья Валерьевна"
"SFSTRY0006537","[PI 6.2] ЛК Ближайшие действия : Срок оплаты счета на продление ИФЛ сотрудников (Спайк) [НФ]","1","Завершено","Выполнено","Байкал","Орлова Наталья Валерьевна","Фёклин Александр Александрович"
"SFSTRY0005884","(UP)В рамках багов - INC0196117 (S4)","0","Завершено","Выполнено","Байкал","Агибалов Станислав Александрович","Павлухина Татьяна Равильевна"
"SFSTRY0003552","Доработка отображения электронных полисов ОСАГО в ЛК","","Завершено","","Байкал","Павлухина Татьяна Равильевна","Шувалов Борис Викторович"
"SFSTRY0003729","SSO доработки Rest","","Завершено","","Байкал","Шувалов Борис Викторович",""
"SFSTRY0006020","Исправить регулярную ошибку в аддендумах ОСАГО","1","Завершено","Выполнено","Байкал","","Морозов Роман Александрович"
"SFSTRY0005537","[PI5.5] (UP)ЛК Убытки. Стадии урегулирования страхового события ДМС (S3)(S4)","0","Завершено","Выполнено","Байкал","Пушина Наталья Сергеевна","Григорьев Константин Владимирович"
"SFSTRY0003679","CHG0049398 Грушина WSM отображение скидки в договорах продления для корп. клиентов","8","Завершено","","Байкал","Орлова Наталья Валерьевна, Павлухина Татьяна Равильевна","Шувалов Борис Викторович"
"SFSTRY0006862","Спайк : Оптимизация и сокращение времени на оформление КАСКО с видеоосмотром","1","Черновик","","Байкал","",""
"SFSTRY0007824","[PI 7.3] reCAPTCHA v.3 : Интеграция наработок в Develop [Б]","1","Черновик","","Байкал","","Шувалов Борис Викторович"
"SFSTRY0006796","[PI 6.3] Страница постоплаты :  Страница постоплаты по регрессу [НПТБ]","1","Завершено","Выполнено","Байкал","Орлова Наталья Валерьевна, Шувалов Борис Викторович, Павлухина Татьяна Равильевна","Пушина Наталья Сергеевна"
"SFSTRY0006483","МП Самоосмотр ИФЛ :  Ошибка при повторной загрузке части файла (Спайк) [П]","1","Черновик","","Байкал","","Пушина Наталья Сергеевна"
"SFSTRY0007759","[PI 7.1] ЛК : Тестовые данные + тест-кейсы для настройки автоплатежей по договорам [ПN]","2","Завершено","Выполнено","Байкал","Никитина Алла Гургеновна, Фёклин Александр Александрович","Пушина Наталья Сергеевна"
"SFSTRY0004819","CHG0050374","2","Завершено","","Байкал","Павлухина Татьяна Равильевна","Орлова Наталья Валерьевна"
"SFSTRY0005593","[PI5.5] (UP)ЛК Убытки ИФЛ/КИС. Чеклист (S3)(S4)","0","Завершено","Дубликат","Байкал","Фёклин Александр Александрович, Григорьев Константин Владимирович","Киклевич Андрей Олегович"
"SFSTRY0006171","Обновить описание для VIP-врача-куратора","1","Завершено","Выполнено","Байкал","Павлухина Татьяна Равильевна","Морозов Роман Александрович"
"SFSTRY0005601","{БАГ} (UP) Ошибка квитования при оплате и выпуске договора из-за разницы сумм. Колосков.","0","Завершено","Выполнено","Байкал","","Орлова Наталья Валерьевна"
"SFSTRY0007402","ЛК-Автоплатежи. Доработка метода списания 1 рубля CHG0054593","3","Завершено","Выполнено","Байкал","Шувалов Борис Викторович, Пушина Наталья Сергеевна, Павлухина Татьяна Равильевна, Фёклин Александр Александрович","Орлова Наталья Валерьевна"
"SFSTRY0006581","[PI 6.2] SSO : Содействие по выкатке SSO на бой [С]","1","Завершено","Выполнено","Байкал","","Шувалов Борис Викторович"
"SFSTRY0006387","[PI 6.1] SSO : Содействие по выкладке SSO на бой - версия Beta [С]","1","Завершено","Выполнено","Байкал","","Агибалов Станислав Александрович"
"SFSTRY0006800","[PI 6.3] ЛК Полисы :  Актуализация алгоритма создания задачи по привязке полиса [ФР]","1","Завершено","Дубликат","Байкал","Морозов Роман Александрович","Фёклин Александр Александрович"
"SFSTRY0008232","[NEXT PI] CHG0055383 Изменение персональных данных клиента","","Черновик","","Байкал","",""
"SFSTRY0004963","[PI 7.4] Заявление КАСКО из МП :  Принимать в АИС ручной ввод СТОА + сохранять в примечание СЧК [КА]","1","Черновик","","Байкал","Киклевич Андрей Олегович","Григорьев Константин Владимирович"
"SFSTRY0006107","Спайк  по изучению фронтенда ЛК","0","Завершено","Выполнено","Байкал","Шувалов Борис Викторович, Агибалов Станислав Александрович","Морозов Роман Александрович"
"SFSTRY0004008","[INC] Аддендумы ОСАГО - Другие изменения - Ошибка при создании заявки","","Завершено","","Байкал","","Морозов Роман Александрович"
"SFSTRY0004937","тестовая история для отмены","0","Завершено","Отменено","Байкал","","Амплеев Евгений Михайлович"
