"number","short_description","story_points","state","u_close_code","assignment_group","additional_assignee_list","assigned_to"
"SFSTRY0010868","Реализация функционала reCAPTCHA в инфраструктуре INGOS.RU","0","Завершено","Выполнено","Байкал","Ильдинбаев Бахтияр Казамханович, Шувалов Борис Викторович, Никитина Алла Гургеновна, Киклевич Андрей Олегович, Фёклин Александр Александрович, Григорьев Константин Владимирович, Орлова Наталья Валерьевна, Пушкарь Илья Андреевич, Хабибуллин Дамир Наилевич, Кайнов Илья Михайлович, Амплеев Евгений Михайлович","Шувалов Борис Викторович"
"SFSTRY0010761","SSO / Доработки [Б]","1","В работе","","Байкал","","Шувалов Борис Викторович"
"SFSTRY0010829","[ДМС] Подготовка тестовых данных + консультации для команды Ювентус - для ДЕМО по РФ ДМС","0","В работе","","Байкал","","Никитина Алла Гургеновна"
"SFSTRY0010827","Настройка Visual Studio 2017","0","В работе","","Байкал","Григорьев Константин Владимирович, Шувалов Борис Викторович","Орлова Наталья Валерьевна"
"SFSTRY0010695","Взаимодействия внутри команды в рамках итерации PI 8.4 по методологии SAFE","0","В работе","","Байкал","Григорьев Константин Владимирович, Киклевич Андрей Олегович, Никитина Алла Гургеновна, Орлова Наталья Валерьевна, Пушкарь Илья Андреевич, Фёклин Александр Александрович, Шувалов Борис Викторович","Амплеев Евгений Михайлович"
"SFSTRY0010806","http://wiki.corp.ingos.ru/pages/viewpage.action?pageId=96967898","0","Завершено","Выполнено","Байкал","Ильдинбаев Бахтияр Казамханович, Шувалов Борис Викторович, Никитина Алла Гургеновна, Киклевич Андрей Олегович, Фёклин Александр Александрович, Григорьев Константин Владимирович, Орлова Наталья Валерьевна, Пушкарь Илья Андреевич, Кайнов Илья Михайлович, Амплеев Евгений Михайлович","Орлова Наталья Валерьевна"
"SFSTRY0009332","[PI 8.3] ИГС-Ж / В ЛК формировать электронный страховой сертификат [ПБА]","2","Готово для тестирования","","Байкал","Шувалов Борис Викторович, Киклевич Андрей Олегович, Фёклин Александр Александрович","Пушкарь Илья Андреевич"
"SFSTRY0010270","[PI 8.2] Франшиза по ДМС: Список счетов ЗХ по франшизе в ЛК [НФN]","2","Тестирование","","Байкал","Фёклин Александр Александрович, Никитина Алла Гургеновна","Орлова Наталья Валерьевна"
"SFSTRY0010457","[PI 8.3] Франшиза по ДМС : Функция отправки уведомления со ссылкой на онлайн оплату счета; проверки автоплатежа АИС [НФN]","2","Тестирование","","Байкал","Никитина Алла Гургеновна, Фёклин Александр Александрович","Орлова Наталья Валерьевна"
"SFSTRY0010608","[PI 8.4] Рассылка чека по e-mail в сервисе оплаты откл. sms [НФА]","3","Черновик","","Байкал","Фёклин Александр Александрович, Киклевич Андрей Олегович","Орлова Наталья Валерьевна"
"SFSTRY0010762","Убытки МП / Исправления КАСКО, ОСАГО, ИФЛ [К]","1","В работе","","Байкал","Киклевич Андрей Олегович","Григорьев Константин Владимирович"
"SFSTRY0009261","[PI 8.3] Убытки онлайн : в методе USER.GETCLAIMLIST3 скорректировать критерии скачивания сметы / направления на ремонт [КА]","1","Тестирование","","Байкал","Киклевич Андрей Олегович","Григорьев Константин Владимирович"
"SFSTRY0010759","Спайк 2: Аннулирование убытка в РСА 2.0 [ФКН]","3","В работе","","Байкал","Григорьев Константин Владимирович, Орлова Наталья Валерьевна","Фёклин Александр Александрович"
"SFSTRY0010867","[Баг] Исправлена уязвимость с перебором данных в методе API - api/v1/lk/util/file/filled_declaration","0","Готово для тестирования","","Байкал","Киклевич Андрей Олегович, Никитина Алла Гургеновна","Шувалов Борис Викторович"
