"number","short_description","story_points","state","u_close_code","assignment_group","additional_assignee_list","assigned_to"
"SFSTRY0019583","[ПОN] Механизм отправки многострочных чеков при онлайн-оплате одним клиентом","5","Draft","","Байкал","Пушкарь Илья Андреевич, Никитина Алла Гургеновна","Орлова Наталья Валерьевна"
"SFSTRY0019797","[АN] СББОЛ / проведение комплексного интеграционного тестирования на тестовой среде","3","Draft","","Байкал","Никитина Алла Гургеновна","Киклевич Андрей Олегович"
"SFSTRY0014567","S3>S4[O] СББОЛ / GETREESTR  Список платежных документов для опроса статуса в СБОЛ","3","Work in progress","","Байкал","","Орлова Наталья Валерьевна"
"SFSTRY0020080","S3 > S4 [ФИA] Предрасчеты в ЛК : реализация сценариев оплаты и изменения условий в подробной инфо по КАСКО","3","Ready","","Байкал","Фёклин Александр Александрович, Никитина Алла Гургеновна","Кучаев Игорь Валерьевич"
"SFSTRY0020869","[ФИА] Предрасчеты в ЛК : по нажатию ""Продлите полис"" в уведомлениях перенаправлять на подробную инфо о продлевающем договоре","2","Draft","","Байкал","Фёклин Александр Александрович, Киклевич Андрей Олегович","Кучаев Игорь Валерьевич"
"SFSTRY0020062","[ПКА] Убытки МП / ОСАГО : автоматическое заполнение бланка ""Заявление о страховой выплате (ПВУ)""","2","Draft","","Байкал","Пушкарь Илья Андреевич, Киклевич Андрей Олегович","Григорьев Константин Владимирович"
"SFSTRY0020059","S3->S4 [ФКА] Убытки МП (ОСАГО)/ Соглашение о получении выплаты клиентом при урегулировании убытка ОСАГО","2","Testing","","Байкал","Киклевич Андрей Олегович, Фёклин Александр Александрович, Пушкарь Илья Андреевич","Григорьев Константин Владимирович"
"SFSTRY0020066","[ФКN] Отображение информации о согласовании акта скрытых повреждений в статусах убытка","2","Draft","","Байкал","Фёклин Александр Александрович, Пушкарь Илья Андреевич, Киклевич Андрей Олегович","Григорьев Константин Владимирович"
"SFSTRY0019794","S2 > S3 > S4 [БO] СББОЛ / Альфа-тестирование","2","Complete","Completed","Байкал","Шувалов Борис Викторович, Никитина Алла Гургеновна, Киклевич Андрей Олегович, Фёклин Александр Александрович, Григорьев Константин Владимирович, Орлова Наталья Валерьевна, Пушкарь Илья Андреевич, Кучаев Игорь Валерьевич, Кайнов Илья Михайлович, Амплеев Евгений Михайлович","Шувалов Борис Викторович"
"SFSTRY0019795","S3>S4 [БИО] СББОЛ / Развертывание","1","Draft","","Байкал","Шувалов Борис Викторович, Кучаев Игорь Валерьевич","Орлова Наталья Валерьевна"
"SFSTRY0020172","S2 > S3 -> S4 [ПИА] НСЖ ИФЛ / Баннер в ЛК с предложением бандла НСЖ + ИФЛ и ссылкой перехода на сайт ИГС-Жизнь","1","Complete","Completed","Байкал","Шувалов Борис Викторович, Никитина Алла Гургеновна, Киклевич Андрей Олегович, Фёклин Александр Александрович, Григорьев Константин Владимирович, Орлова Наталья Валерьевна, Пушкарь Илья Андреевич, Кучаев Игорь Валерьевич, Кайнов Илья Михайлович, Амплеев Евгений Михайлович","Пушкарь Илья Андреевич"
"SFSTRY0021370","S3->S4 [БО] Предрасчеты в ЛК : реализовать возможность создания ссылки на оплату премии по договору в API сайта","1","Complete","Ready for Release","Байкал","Шувалов Борис Викторович, Никитина Алла Гургеновна, Киклевич Андрей Олегович, Фёклин Александр Александрович, Григорьев Константин Владимирович, Орлова Наталья Валерьевна, Пушкарь Илья Андреевич, Кучаев Игорь Валерьевич, Кайнов Илья Михайлович, Амплеев Евгений Михайлович","Шувалов Борис Викторович"
"SFSTRY0021848","Обработка очереди рекуррентной оплаты для франшизы ДМС при негативном сценарии системной ошибки","0","Testing","","Байкал","Никитина Алла Гургеновна","Орлова Наталья Валерьевна"
"SFSTRY0021788","Feature Toggles: технический долг-SFSTRY0016923 Список контактов (телефонов и e-mail) для отображения в ЛК","0","Testing","","Байкал","","Орлова Наталья Валерьевна"
"SFSTRY0020354","Support активности и консультации в рамках итерации PI 12.4","0","Work in progress","","Байкал","Григорьев Константин Владимирович, Киклевич Андрей Олегович, Кучаев Игорь Валерьевич, Никитина Алла Гургеновна, Орлова Наталья Валерьевна, Пушкарь Илья Андреевич, Фёклин Александр Александрович, Шувалов Борис Викторович, Амплеев Евгений Михайлович","Кайнов Илья Михайлович"
"SFSTRY0020353","Взаимодействия внутри команды в рамках итерации PI 12.4 по методологии SAFe","0","Work in progress","","Байкал","Григорьев Константин Владимирович, Киклевич Андрей Олегович, Кучаев Игорь Валерьевич, Никитина Алла Гургеновна, Орлова Наталья Валерьевна, Пушкарь Илья Андреевич, Фёклин Александр Александрович, Шувалов Борис Викторович, Кайнов Илья Михайлович","Амплеев Евгений Михайлович"
