"number","short_description","story_points","state","u_close_code","assignment_group","additional_assignee_list","assigned_to"
"SFSTRY0005272","[PI 7.2] Добавление полиса в ЛК : Актуализация алгоритма создания задачи в АИС [ФР]","1","В работе","","Байкал","Морозов Роман Александрович","Фёклин Александр Александрович"
"SFSTRY0007772","[PI 7.2] ТЗ для Агимы : Запросы по номеру полиса [Ф]","1","В работе","","Байкал","","Фёклин Александр Александрович"
"SFSTRY0007423","[PI 7.2] Метод заявления убытка по ОСАГО из IngoMobile, часть 2 (готов к тестированию) [К]","3","Черновик","","Байкал","Никитина Алла Гургеновна","Григорьев Константин Владимирович"
"SFSTRY0007755","[PI 7.1] МП : Включить регионы для возможности заявления убытка КАСКО [К] 1/2 SP","1","Тестирование","","Байкал","","Григорьев Константин Владимирович"
"SFSTRY0006510","[PI 7.2] ТЗ для Агимы : ДМС Кодовое слово [П]","1","Черновик","","Байкал","","Пушина Наталья Сергеевна"
"SFSTRY0007810","[PI 7.2] Разработка проектного решения по развитию платежного сервиса : Консультация архитекторов [НБ]","2","Черновик","","Байкал","Орлова Наталья Валерьевна","Шувалов Борис Викторович"
"SFSTRY0007337","[PI 7.1] Создание убытка по договору ОСАГО из IngoMobile (версия 1.0 - MVP) CHG0054509 [КN]","4","В работе","","Байкал","Никитина Алла Гургеновна","Григорьев Константин Владимирович"
"SFSTRY0008326","Обновление текста для виджета регистрации ПЛ в ЛК [Р]","0","Завершено","Готово к релизу","Байкал","","Морозов Роман Александрович"
"SFSTRY0007367","[PI 7.2] Страница постоплаты с кросс-продуктами [ПБА]","1","Черновик","","Байкал","Пушина Наталья Сергеевна, Никитина Алла Гургеновна","Шувалов Борис Викторович"
"SFSTRY0007770","[PI 7.2] SSO : Переход на новый формат Principal [Б]","1","В работе","","Байкал","","Шувалов Борис Викторович"
"SFSTRY0007769","[PI 7.2] SSO : Группировка функциональности по ответственности [Б]","1","В работе","","Байкал","","Шувалов Борис Викторович"
"SFSTRY0006550","[PI 7.2] ТЗ для Агимы : Запрос на добавление полиса ДМС ребёнка [Ф]","1","Черновик","","Байкал","","Фёклин Александр Александрович"
"SFSTRY0006801","[PI 7.2] ТЗ для Агимы : Требования для UI вывода подробной инфо по архивным договорам [ФР]","1","Черновик","","Байкал","Морозов Роман Александрович","Фёклин Александр Александрович"
"SFSTRY0007176","[PI 7.2] Обратная связь на Сайте : Создание задачи в АИС по онлайн обращению [ФНРN]","4","Черновик","","Байкал","Морозов Роман Александрович, Орлова Наталья Валерьевна, Киклевич Андрей Олегович","Фёклин Александр Александрович"
"SFSTRY0007774","[PI 7.2] ТЗ для Агимы : Автоплатежи франшизы по ДМС ЗХ [Ф]","1","Черновик","","Байкал","","Фёклин Александр Александрович"
"SFSTRY0007816","[PI 7.2] ЛК : Переключение продления ОСАГО на новый процесс CHG0054519 [Б] 1/2 SP","1","Завершено","","Байкал","","Шувалов Борис Викторович"
"SFSTRY0008325","Спайк : Доработка коммуникаций онлайн-чата [Р]","1","В работе","","Байкал","","Морозов Роман Александрович"
"SFSTRY0007666","[PI 7.2] Спайк : Требования к странице постоплаты с кросс-продуктами [ПБ]","1","Черновик","","Байкал","Шувалов Борис Викторович","Пушина Наталья Сергеевна"
"SFSTRY0007762","[PI 7.1] Спайк по сущности оплаты регресса 76 счет [Н]","1","Черновик","","Байкал","","Орлова Наталья Валерьевна"
"SFSTRY0007771","[PI 7.2] SSO : Взаимодействие с архитекторами по настройке тестового окружения ЕСИА на тестовом Blitz [Б]","1","Черновик","","Байкал","","Шувалов Борис Викторович"
"SFSTRY0007817","[PI 7.2] Ingo UI : Уведомления о блокировке AJAX запросов WAF для Angular 6 [Р]","2","В работе","","Байкал","","Морозов Роман Александрович"
"SFSTRY0007773","[PI 7.2] ТЗ для Агимы : Страховые случаи по полису [П]","1","Черновик","","Байкал","","Пушина Наталья Сергеевна"
